<?xml version="1.0" encoding="UTF-8" standalone="no"?>
<svg
   xmlns:dc="http://purl.org/dc/elements/1.1/"
   xmlns:cc="http://creativecommons.org/ns#"
   xmlns:rdf="http://www.w3.org/1999/02/22-rdf-syntax-ns#"
   xmlns:svg="http://www.w3.org/2000/svg"
   xmlns="http://www.w3.org/2000/svg"
   xmlns:sodipodi="http://sodipodi.sourceforge.net/DTD/sodipodi-0.dtd"
   xmlns:inkscape="http://www.inkscape.org/namespaces/inkscape"
   version="1.1"
   x="0px"
   y="0px"
   viewBox="0 0 500.00003 485.28"
   enable-background="new 0 0 100 100"
   xml:space="preserve"
   id="svg2"
   inkscape:version="0.91 r13725"
   sodipodi:docname="icon.svg"
   width="500.00003"
   height="485.28"><metadata
     id="metadata22"><rdf:RDF><cc:Work
         rdf:about=""><dc:format>image/svg+xml</dc:format><dc:type
           rdf:resource="http://purl.org/dc/dcmitype/StillImage" /><dc:title></dc:title></cc:Work></rdf:RDF></metadata><defs
     id="defs20" /><sodipodi:namedview
     pagecolor="#ffffff"
     bordercolor="#666666"
     borderopacity="1"
     objecttolerance="10"
     gridtolerance="10"
     guidetolerance="10"
     inkscape:pageopacity="0"
     inkscape:pageshadow="2"
     inkscape:window-width="1680"
     inkscape:window-height="988"
     id="namedview18"
     showgrid="false"
     fit-margin-top="0"
     fit-margin-left="0"
     fit-margin-right="0"
     fit-margin-bottom="0"
     inkscape:zoom="1.888"
     inkscape:cx="46.750321"
     inkscape:cy="30.976472"
     inkscape:window-x="-8"
     inkscape:window-y="-8"
     inkscape:window-maximized="1"
     inkscape:current-layer="svg2" /><path
     d="m 386.90296,191.24385 c 1.37841,3.82644 2.99941,7.38824 3.94775,11.12095 1.17991,4.7362 2.81746,9.67639 2.49215,14.40156 -1.00899,14.51734 -4.70862,28.59359 -12.67579,40.81727 -9.77012,14.96946 -21.46449,28.38407 -35.32571,39.98471 -18.70218,15.6366 -38.51259,29.46474 -59.65177,41.55609 -5.94368,3.39088 -11.36356,7.95615 -16.33132,12.71991 -10.59165,10.15607 -22.61133,17.70421 -36.67104,21.94417 -10.04029,3.01595 -19.27007,7.52608 -28.19661,13.14997 -7.90652,4.97328 -16.62906,8.94859 -25.45084,12.08032 -10.30494,3.65002 -20.50512,7.21732 -29.90031,12.99559 -11.5014,7.06845 -23.90703,12.0307 -37.18932,14.69377 -3.40741,0.67818 -6.70455,2.13377 -10.12299,2.42048 -24.000753,2.07863 -40.899975,16.18797 -56.393225,32.82253 -5.06701,5.44745 -10.194669,10.85631 -15.520818,16.03359 -5.612858,5.45847 -12.37806,8.06641 -20.3452288,7.09602 C 2.0638617,484.16552 -1.5696088,479.96414 0.64134965,472.94532 3.012203,465.43026 6.2872886,458.14678 9.7388102,451.01768 20.341486,429.09004 34.13103,409.0205 47.143155,388.51537 c 4.179318,-6.59979 9.703957,-12.64271 15.625577,-17.79242 29.348957,-25.5556 54.193288,-55.11407 78.100318,-85.62088 10.68538,-13.63517 21.24395,-27.35303 33.51725,-39.76417 10.78462,-10.91144 20.27906,-23.14063 29.74042,-35.24853 4.54322,-5.80032 7.74111,-12.66476 11.5014,-19.07158 0.49622,-0.8491 0.73882,-1.84155 1.16337,-2.74027 13.8943,-29.55847 25.55559,-41.52301 54.50205,-56.3822 10.01272,-5.14971 20.75875,-6.40681 32.12782,-6.56671 7.71355,-7.80176 12.05827,-17.89718 17.57188,-27.220705 2.5087,-4.251 4.79133,-8.63983 7.43235,-12.79709 2.2275,-3.51218 5.57978,-5.61838 9.79218,-6.05946 4.81338,-0.51277 8.7501,1.04758 11.59513,5.11663 0.56238,0.79396 1.42802,1.37289 2.36533,2.26058 5.67903,-3.7272 7.71355,-10.02926 10.70744,-15.57596 2.58588,-4.79132 4.44948,-9.99066 7.13461,-14.72134 6.56672,-11.55102 9.45585,-12.51039 23.54864,-8.39723 6.62736,-6.43439 10.41522,-15.13487 15.26168,-23.07447 3.09314,-5.06701 5.51361,-10.53651 8.41929,-15.7248198 1.19645,-2.13928 2.62448,-4.26202 4.36678,-5.97676 5.7948,-5.70659 14.7048,-3.36329997 16.01704,4.48808 0.79396,4.7858198 0.204,9.8362898 -0.0882,14.7433998 -0.14887,2.44253 -1.05861,4.83544 -1.60446,7.25592 -0.52379,2.37636 -1.00899,4.76376 -1.59895,7.49851 3.74926,1.6596 7.80177,2.49767 10.42073,4.9016 2.62999,2.41496 3.81542,6.4013 5.80032,9.96861 7.98922,-6.42336 15.26168,-12.35049 22.62235,-18.15081 4.33921,-3.41293 9.04233,-6.04292 14.80405,-6.36822 6.83688,-0.38596 11.64475,4.65349 9.69844,11.3029 -1.2185,4.15727 -3.73271,8.02782 -6.13665,11.71643 -1.87462,2.8781 -4.51013,5.25998 -6.74866,7.91755 -1.90219,2.25506 -3.70514,4.58181 -5.40885,6.70455 1.89117,4.8189 4.58181,9.10297 5.09458,13.63516 0.54033,4.70311 -1.03105,9.64882 -1.73128,14.95843 3.70515,0.78845 7.56468,1.42251 11.30291,2.45356 4.94019,1.35083 7.25591,5.629405 5.17728,10.398675 -1.32878,3.04903 -3.30817,6.3572 -5.93816,8.1822 -4.82441,3.35228 -10.13953,6.29103 -15.63661,8.33107 -9.3566,3.46806 -17.55534,8.6674 -25.62726,14.09279 1.24607,3.91467 4.15175,2.90568 6.25795,3.24201 6.86444,1.08066 13.85019,1.52175 20.61539,2.9994 4.75825,1.04207 9.38968,3.10417 13.82814,5.22691 3.33022,1.59343 3.57833,6.95266 0.43006,8.66739 -3.42395,1.85809 -7.14564,3.58385 -10.94452,4.27857 -6.3186,1.15786 -12.78055,1.54932 -19.19288,2.10068 -20.44448,1.75885 -40.21629,6.01535 -58.69792,15.3113 -6.23589,3.13725 -12.28984,6.42336 -17.42853,12.2292 z m -155.49489,-1.16338 c 5.1442,2.11172 9.19671,3.81542 13.28781,5.45297 8.28696,3.31919 16.7283,6.33514 24.87742,9.97963 9.36762,4.19035 16.72278,10.72949 20.37831,20.63746 0.82704,2.23852 1.10823,4.80787 1.02553,7.20077 -0.0441,1.20748 -1.25159,3.10417 -2.29366,3.38536 -1.67063,0.4466 -4.05251,0.42455 -5.37578,-0.49622 -1.95181,-1.34533 -3.13724,-3.74926 -4.81338,-5.55221 -3.01594,-3.24201 -5.5908,-7.55365 -9.33454,-9.32903 -12.51039,-5.93265 -25.41776,-11.0548 -38.29204,-16.22656 -3.60039,-1.44457 -6.79277,0.18194 -9.114,3.23649 -6.60531,8.69496 -13.25473,17.35685 -19.72219,26.16209 -1.27916,1.75332 -1.79744,4.07456 -2.96081,6.83136 5.89956,0.96488 10.76257,1.85257 15.64212,2.53075 10.31596,1.44457 18.42649,6.96369 25.89192,13.72889 2.86156,2.58589 3.73823,5.70659 2.60794,9.42277 -0.93732,3.09313 -4.36678,4.93468 -6.9637,3.53422 -1.27915,-0.70023 -2.62999,-1.44456 -3.64449,-2.46458 -9.36763,-9.46687 -21.05097,-12.09135 -33.89218,-12.8798 -11.01068,-0.66715 -19.08261,2.89465 -25.67689,11.61718 -10.16159,13.45873 -20.42242,26.88988 -31.38348,39.69249 -17.10322,19.97582 -34.84603,39.40027 -52.263529,59.10041 -2.155822,2.4315 -5.960214,4.01942 -4.863006,8.57367 3.368817,2.67961 6.996774,5.29858 10.282887,8.27041 3.936719,3.57282 4.570789,9.07541 1.698193,11.77157 -2.199932,2.0676 -5.441935,1.8636 -9.499954,-0.80499 -2.905674,-1.90771 -5.524639,-4.29511 -8.573667,-5.91059 -2.922214,-1.5383 -6.230382,-2.35983 -9.29595,-3.45704 -5.46399,4.82441 -10.227751,9.02578 -10.360078,16.18797 2.668589,2.74578 5.513613,4.95122 7.344132,7.79625 1.152345,1.80846 1.317753,4.65348 1.031045,6.91406 -0.551361,4.251 -4.019423,5.71762 -7.614298,3.85402 -3.374331,-1.73127 -5.078037,-6.38476 -9.847311,-5.66248 -10.746031,12.48282 -28.450239,43.39764 -32.579935,57.6779 3.683093,-2.84503 6.522603,-4.59836 8.827293,-6.90305 9.825257,-9.80871 19.281102,-20.00889 29.277281,-29.63566 7.989224,-7.68046 17.312742,-12.95699 28.648729,-14.77648 8.204255,-1.31224 16.187968,-4.0911 24.563138,-6.30206 -0.60649,-3.96429 -1.4611,-6.88099 -1.35083,-9.75909 0.0662,-1.67063 1.28467,-4.0084 2.66859,-4.72517 1.31775,-0.6892 4.15726,-0.3253 5.2269,0.72228 2.78989,2.67962 4.97328,5.98779 7.63635,9.34558 5.59632,-1.22954 11.41869,-2.28264 15.04665,-8.32556 -0.58995,-4.37229 -1.2957,-8.75561 -1.7423,-13.17202 -0.25363,-2.44253 -0.57342,-5.06149 0.0662,-7.35516 0.43007,-1.56035 2.29367,-3.446 3.82094,-3.77131 1.54381,-0.33633 4.01942,0.61201 5.07803,1.8636 1.5383,1.79744 2.31572,4.32819 3.1593,6.63288 1.12478,3.07108 2.00696,6.23589 3.19238,10.02375 10.50344,-4.35024 20.72016,-6.34066 29.53643,-12.24574 -0.39147,-7.63635 -3.13725,-13.8943 -6.87548,-19.81592 -2.65205,-4.20137 -5.48053,-8.3035 -7.98371,-12.57655 -3.3633,-5.76172 -3.44049,-8.35863 -0.79947,-10.735 2.92221,-2.62999 6.53363,-1.3343 10.85079,4.40538 7.41029,9.85282 13.8943,20.30112 18.26659,32.59647 9.06989,-4.48808 17.32929,-8.77767 25.7596,-12.68682 8.88794,-4.13521 19.07158,-5.52464 26.68588,-12.0693 1.02553,-5.55772 -0.71125,-10.12299 -2.85605,-14.61107 -4.35575,-9.11952 -10.45381,-16.79998 -18.49265,-22.98074 -3.53423,-2.71269 -6.87548,-5.69556 -10.0017,-8.86037 -0.77742,-0.79947 -1.0145,-3.23098 -0.37492,-4.0911 1.03104,-1.42251 2.89464,-2.84503 4.57078,-3.04903 1.75333,-0.21503 3.92569,0.62304 5.49156,1.64857 12.65374,8.23734 23.51556,18.20044 30.31384,32.02857 1.44457,2.90568 3.45703,5.53567 5.5081,8.76665 8.36966,-6.19179 15.85163,-11.74951 23.80226,-17.62702 -2.24404,-4.05802 -4.12969,-7.4544 -6.0374,-10.84528 -1.20748,-2.15582 -2.93876,-4.15726 -3.55077,-6.46195 -0.42455,-1.62651 0.0827,-4.2124 1.20197,-5.34269 1.15234,-1.15234 3.91466,-1.90771 5.34269,-1.32327 2.61345,1.08619 5.19382,2.92773 7.01883,5.10561 3.07659,3.67206 5.55772,7.85138 8.46339,12.0693 13.32089,-8.06642 25.53354,-16.34786 36.23546,-27.07184 -2.01247,-8.74458 -7.11807,-15.5153 -11.5455,-22.63337 -1.80847,-2.90568 -3.8871,-5.87751 -4.64247,-9.09746 -0.43006,-1.85258 1.04759,-4.7362 2.55832,-6.31309 1.95733,-2.04555 4.84095,-1.25159 6.64942,0.61201 2.74578,2.84503 5.19933,5.98778 7.52608,9.18568 4.04148,5.57977 7.88446,11.29739 12.11892,17.3789 1.99593,-1.50521 4.77479,-2.90567 6.5612,-5.11663 5.62388,-6.93612 10.77359,-14.2582 16.29272,-21.266 4.94571,-6.26898 5.37026,-12.59309 0.89872,-19.19288 -5.27101,-7.79074 -10.66333,-15.51531 -15.90677,-23.3281 -1.63203,-2.4315 -3.23649,-4.96225 -4.31165,-7.6584 -0.44109,-1.07516 0.11579,-3.31369 0.99797,-3.98083 1.39494,-1.0531 3.53974,-1.83603 5.20485,-1.59895 1.78641,0.24811 3.74925,1.47213 5.02841,2.85054 3.35779,3.60039 6.3186,7.56467 9.54406,11.29188 2.44253,2.81194 3.04903,7.43234 7.76868,8.15463 1.0531,-8.71702 1.47214,-8.91 -0.88217,-14.03214 -4.54322,-9.90797 -9.64883,-19.5623 -14.42361,-29.37102 -3.58937,-7.37721 -8.98719,-13.24921 -15.85164,-17.38993 -8.91,-5.36474 -17.99643,-10.58062 -27.5019,-14.7048 -9.6433,-4.19035 -20.06955,-5.89957 -30.6226,-3.6445 -2.66859,0.57341 -5.99881,1.48867 -5.78378,5.7507 6.24141,2.83399 12.77504,5.31512 18.82347,8.67291 7.34414,4.08558 14.30231,8.89345 21.39282,13.43667 2.86156,1.83052 3.8871,4.455 2.54729,7.65289 -1.37841,3.29163 -5.02842,4.82993 -8.75562,3.21444 -4.06904,-1.75884 -8.00025,-3.94775 -11.77156,-6.30757 -11.06031,-6.9251 -23.05793,-11.3415 -35.66204,-14.60556 -8.28145,-2.1448 -14.58902,0.0386 -20.11366,5.96021 -7.10153,7.63084 -13.7289,15.60904 -18.03503,27.21519 z m 129.4541,-46.17098 c 11.04377,-1.75885 13.6903,-2.78989 16.33684,-9.41725 4.31716,-10.85079 11.31944,-19.72219 19.09915,-28.09737 9.77012,-10.514465 19.95376,-20.659515 29.43718,-31.433105 4.17931,-4.75274 7.16769,-10.58063 10.40969,-16.09424 0.7278,-1.22953 0.23158,-3.16481 0.36942,-6.14768 -2.43151,1.91874 -3.86505,2.57486 -4.59836,3.68861 -9.57163,14.68826 -21.49757,27.08838 -35.28711,37.89506 -16.33684,12.813635 -26.66935,30.313845 -36.30163,48.255135 -0.15438,0.27568 0.33633,0.89321 0.53482,1.35084 z m 39.96267,-16.27067 c 6.34616,-0.8877 6.42335,-0.8105 9.43379,-4.52117 21.51411,-26.537015 44.9635,-51.298645 69.1021,-75.437245 1.15234,-1.14683 1.54381,-3.04903 2.28815,-4.59835 -4.26203,0.58444 -7.00229,2.55832 -9.63228,4.68657 -19.68911,15.93985 -36.6545,34.65305 -53.55372,53.371775 -6.58325,7.2945 -11.9094,15.73033 -17.70972,23.71956 -0.43006,0.60649 0.0221,1.84154 0.0717,2.77886 z M 381.68709,60.769725 c -2.08966,2.33226 -4.1297,3.74374 -4.9402,5.66799 -6.44541,15.19552 -15.90126,28.60462 -25.06488,42.157085 -4.71414,6.97472 -10.03477,13.53592 -15.05216,20.31766 -1.80295,2.45907 -1.63754,5.68453 0.56239,6.27449 1.64857,0.45212 4.11867,0.34185 5.3482,-0.62855 2.28815,-1.81949 4.11867,-4.30062 5.81135,-6.74315 11.31393,-16.33132 21.8725,-33.114755 29.2442,-51.679095 1.78641,-4.53218 5.06149,-8.65637 4.0911,-15.36643 z m -0.26466,30.02162 c 14.18653,-9.3566 22.31911,-19.55679 33.5779,-42.09092 4.82441,-9.66536 11.45729,-18.92272 11.10442,-31.35591 -1.60998,1.19645 -2.65756,1.57689 -2.98838,2.28815 -7.72457,16.58494 -17.32928,32.04511 -28.43921,46.53488 -5.13318,6.69904 -8.68946,14.04869 -13.25473,24.6238 z m 59.49739,63.075725 c -2.54729,-1.04207 -3.73823,-1.93528 -4.95122,-1.97939 -21.29357,-0.88769 -39.35065,8.12155 -56.77367,18.8731 -0.63406,0.39146 -0.43006,2.60242 -0.12681,3.84298 0.1213,0.4852 1.80847,1.10273 2.45356,0.83807 2.26609,-0.92628 4.32818,-2.38188 6.59428,-3.33573 10.92798,-4.60387 21.77877,-9.42828 32.89972,-13.50835 5.92714,-2.17788 12.35601,-2.99389 19.90414,-4.73068 z m -71.50603,3.94223 c 1.31224,-0.17092 2.7954,-0.011 3.90915,-0.57341 12.37254,-6.2359 25.34607,-10.66333 38.87648,-13.68479 4.73619,-1.0531 9.26287,-3.21995 13.77851,-5.11663 1.78641,-0.75537 3.36331,-2.13928 1.08619,-5.98778 -19.85452,6.29654 -40.56365,11.10992 -57.65033,25.36261 z M 339.43628,90.273065 c -2.48664,2.6355 -4.15727,3.80439 -5.02842,5.40885 -5.37577,9.946565 -10.60267,19.981335 -15.76341,30.043675 -0.35288,0.6892 0.22605,1.85258 0.44108,3.19238 1.31224,-0.0992 3.28612,0.32531 3.8871,-0.39698 5.67351,-6.78174 11.58961,-13.45321 16.46365,-20.79734 2.9994,-4.48808 3.4846,-10.100945 0,-17.450585 z m 134.02488,-9.57163 c -4.08007,2.06209 -7.06293,2.80091 -8.9927,4.65348 -11.57307,11.09891 -24.68995,20.703625 -33.97488,34.344295 2.09518,0.16541 3.83748,-0.24811 5.09458,-1.26261 9.5992,-7.85139 19.13223,-15.7965 28.62667,-23.758165 2.65757,-2.23301 5.41437,-4.42743 7.64738,-7.05191 1.02002,-1.20748 0.86013,-3.41844 1.59895,-6.92509 z m 14.21961,27.137995 c -0.30325,-0.8105 -0.59547,-1.621 -0.89872,-2.4315 -7.4103,2.06761 -14.8261,4.10213 -22.22537,6.21384 -1.89668,0.54034 -3.83196,1.12478 -5.53015,2.07312 -2.55832,1.44457 -5.08907,3.038 -7.25592,4.96225 -0.79947,0.70574 -1.14683,2.87259 -0.63958,3.79888 0.46315,0.8491 2.65205,1.621 3.55628,1.23505 9.4779,-4.0911 18.86758,-8.3862 28.23521,-12.72542 1.69819,-0.79947 3.17584,-2.07312 4.75825,-3.12622 z"
     id="path4"
     inkscape:connector-curvature="0"
     style="clip-rule:evenodd;fill-rule:evenodd" /><path
     d="m 31.100321,450.67987 c 2.6,0.795 4.958,1.971 6.563,4.299 0.1,0.148 0.212,0.287 0.299,0.441 0.352,0.617 0.311,1.334 -0.092,1.729 -0.382,0.375 -1.199,0.305 -1.64,-0.301 -1.371,-1.891 -3.313,-2.914 -5.403,-3.75 -0.324,-0.129 -0.719,-0.273 -0.9,-0.535 -0.226,-0.324 -0.379,-0.787 -0.354,-1.178 0.032,-0.514 0.517,-0.662 0.984,-0.709 0.175,-0.017 0.354,0.002 0.543,0.004 z"
     id="path6"
     inkscape:connector-curvature="0"
     style="clip-rule:evenodd;fill-rule:evenodd" /><path
     d="m 52.170321,448.26787 c -0.272,-0.117 -0.588,-0.156 -0.734,-0.334 -1.313,-1.588 -2.623,-3.176 -3.871,-4.814 -0.53,-0.697 -0.498,-1.401 -0.114,-1.705 0.448,-0.357 1.252,-0.182 1.875,0.52 1.069,1.207 2.098,2.453 3.127,3.695 0.225,0.271 0.489,0.59 0.531,0.912 0.055,0.41 -0.041,0.869 -0.185,1.268 -0.072,0.196 -0.399,0.3 -0.629,0.458 z"
     id="path8"
     inkscape:connector-curvature="0"
     style="clip-rule:evenodd;fill-rule:evenodd" /><path
     d="m 57.469321,433.36687 c 0.275,0.109 0.557,0.158 0.763,0.312 1.366,1.025 2.575,2.206 3.448,3.693 0.135,0.227 0.291,0.497 0.281,0.739 -0.016,0.335 -0.084,0.767 -0.303,0.968 -0.213,0.196 -0.68,0.274 -0.975,0.192 -0.641,-0.181 -4.007,-3.7 -4.162,-4.388 -0.084,-0.375 0.078,-0.848 0.252,-1.219 0.082,-0.173 0.457,-0.204 0.696,-0.297 z"
     id="path10"
     inkscape:connector-curvature="0"
     style="clip-rule:evenodd;fill-rule:evenodd" /><path
     d="m 24.883321,460.08487 c -0.202,0.131 -0.545,0.543 -0.867,0.527 -0.781,-0.041 -1.318,-1.023 -1.067,-1.807 0.156,-0.494 0.584,-0.666 1.057,-0.572 0.746,0.148 1.103,0.822 0.877,1.852 z"
     id="path12"
     inkscape:connector-curvature="0"
     style="clip-rule:evenodd;fill-rule:evenodd" /></svg>