<?xml version="1.0" encoding="UTF-8" standalone="no"?>
<svg
   xmlns:dc="http://purl.org/dc/elements/1.1/"
   xmlns:cc="http://creativecommons.org/ns#"
   xmlns:rdf="http://www.w3.org/1999/02/22-rdf-syntax-ns#"
   xmlns:svg="http://www.w3.org/2000/svg"
   xmlns="http://www.w3.org/2000/svg"
   xmlns:sodipodi="http://sodipodi.sourceforge.net/DTD/sodipodi-0.dtd"
   xmlns:inkscape="http://www.inkscape.org/namespaces/inkscape"
   version="1.1"
   x="0px"
   y="0px"
   viewBox="0 0 500 499.48981"
   xml:space="preserve"
   id="svg2"
   inkscape:version="0.91 r13725"
   sodipodi:docname="12.svg"
   width="500"
   height="499.48981"><metadata
     id="metadata64"><rdf:RDF><cc:Work
         rdf:about=""><dc:format>image/svg+xml</dc:format><dc:type
           rdf:resource="http://purl.org/dc/dcmitype/StillImage" /><dc:title></dc:title></cc:Work></rdf:RDF></metadata><defs
     id="defs62" /><sodipodi:namedview
     pagecolor="#ffffff"
     bordercolor="#666666"
     borderopacity="1"
     objecttolerance="10"
     gridtolerance="10"
     guidetolerance="10"
     inkscape:pageopacity="0"
     inkscape:pageshadow="2"
     inkscape:window-width="1680"
     inkscape:window-height="988"
     id="namedview60"
     showgrid="false"
     fit-margin-top="0"
     fit-margin-left="0"
     fit-margin-right="0"
     fit-margin-bottom="0"
     inkscape:zoom="1.9284985"
     inkscape:cx="49"
     inkscape:cy="36.193962"
     inkscape:window-x="-8"
     inkscape:window-y="-8"
     inkscape:window-maximized="1"
     inkscape:current-layer="svg2" /><path
     d="M 492.34694,0 346.42857,0 c -4.08163,0 -7.14286,3.06123 -7.65306,7.14286 L 336.22449,48.9796 322.44898,50 c -3.57143,0.51021 -6.63265,3.06123 -7.14286,6.63266 l -7.65306,85.71428 -59.18367,46.42857 -64.79592,-22.44898 -3.57143,-67.85714 c 0,-4.08163 -3.06122,-7.14286 -7.14286,-7.14286 l -17.85714,-1.0204 0,-82.65306 C 155.10204,3.57143 151.53061,0 147.44898,0 L 7.6530612,0 C 3.5714286,0 0,3.57143 0,7.65307 c 0,4.08163 3.5714286,7.65306 7.6530612,7.65306 l 132.6530588,0 0,81.63265 c 0,4.08163 3.06123,7.14286 7.14286,7.65306 l 18.36735,1.02041 3.57143,66.32653 c 0,3.06122 2.04081,5.61224 5.10204,6.63265 l 73.46938,26.02041 c 0,0 0,0 0,0 0,0 0,0 0,0 l 55.61225,18.36735 c 20.91837,7.14285 28.57143,25 29.08163,39.28571 0,14.28572 -7.14286,32.65306 -28.06122,40.30612 l -41.32653,14.79592 -101.02041,41.32653 c -17.34694,7.14286 -29.08163,22.95919 -30.10204,41.83674 -1.53062,18.87755 8.16326,36.22449 23.97959,45.40816 l 90.30612,52.55102 c 1.02041,0.51021 2.55102,1.02041 3.57143,1.02041 2.55102,0 5.10204,-1.53061 6.63265,-3.57143 2.04082,-3.57143 1.02041,-8.16326 -2.55102,-10.20408 l -90.81632,-53.06123 c -11.22449,-6.63265 -17.34694,-18.36734 -16.83674,-31.63265 1.02041,-13.2653 8.67347,-23.97959 20.91837,-29.08163 l 101.02041,-40.81633 40.81632,-14.28571 c 23.46939,-8.16327 38.26531,-29.59184 38.26531,-54.59184 -0.5102,-25 -15.81633,-45.91837 -39.28571,-53.57143 l 12.7551,1.02041 c 23.97959,3.57143 43.36734,16.32653 53.06122,34.69388 8.67347,16.32653 8.67347,36.22449 -1.02041,55.10204 -6.12245,12.7551 -15.81632,22.95918 -28.06122,29.59184 L 287.7551,362.2449 c -14.28571,6.12245 -23.97959,19.38776 -25,34.69388 -1.02041,15.30612 6.63266,30.10204 19.89796,37.7551 l 112.2449,63.26531 c 1.02041,0.5102 2.55102,1.02041 3.57143,1.02041 2.55102,0 5.10204,-1.53062 6.63265,-4.08164 2.04082,-3.57143 1.02041,-8.16326 -3.06122,-10.20408 l -112.2449,-63.2653 c -8.67347,-5.10205 -13.26531,-13.77551 -12.7551,-23.9796 0.5102,-9.69387 6.63265,-17.85714 16.83673,-22.44898 l 58.67347,-33.67347 c 14.79592,-8.67347 26.53061,-20.91836 34.18367,-36.22449 11.22449,-23.46938 11.7347,-47.95918 0.51021,-69.38775 C 375,212.75511 352.04082,197.44898 322.44898,193.36735 l -52.04082,-2.04082 49.4898,-38.77551 c 1.53061,-1.53061 2.55102,-3.06122 3.06122,-5.10204 l 7.65306,-82.65306 13.77552,-1.02041 c 3.57142,-0.5102 6.63265,-3.06122 7.14285,-7.14285 l 2.04082,-41.32653 138.77551,0 C 496.42857,15.30613 500,11.7347 500,7.65307 500,3.57143 496.42857,0 492.34694,0 Z"
     id="path4"
     inkscape:connector-curvature="0" /><path
     d="m 240.30612,219.38776 c -0.5102,-2.55102 -2.55102,-4.59184 -5.61224,-4.59184 -3.57143,0.51021 -8.67347,3.06123 -11.7347,5.10204 -0.5102,0 -0.5102,-0.5102 -1.0204,-0.5102 -12.2449,-4.59184 -15.81633,-1.53061 -16.83674,1.02041 -1.53061,2.55102 -0.5102,5.61224 2.04082,6.63265 0,0 0,0 0,0 -1.02041,1.53061 -1.53062,4.08163 -1.02041,6.63265 0,2.55102 2.55102,4.59184 5.10204,4.59184 0,0 0.5102,0 0.5102,0 0.51021,0 1.02041,0 1.53062,-0.5102 -2.04082,9.69387 0,21.42857 0.5102,22.95918 0.5102,2.55102 2.55102,4.08163 5.10204,4.08163 0.51021,0 0.51021,0 1.02041,0 2.55102,-0.5102 4.59184,-3.06122 4.08163,-6.12245 -1.53061,-7.65306 -2.04081,-19.38775 1.53061,-23.97959 0.51021,1.02041 0.51021,2.04082 0.51021,3.06123 -0.51021,2.55102 1.53061,5.10204 4.08163,5.61224 0,0 0.5102,0 0.5102,0 2.55103,0 4.59184,-2.04082 5.10205,-4.08163 0,-1.53061 0,-3.06123 0,-4.59184 0.5102,0.51021 1.53061,0.51021 2.04081,0.51021 1.53061,0 2.55102,-0.51021 3.57143,-1.53062 2.04082,-2.04081 1.53061,-5.10204 -0.5102,-7.14285 -1.02041,-1.02041 -2.04082,-1.53062 -3.57143,-2.55102 2.04081,0 3.57143,-2.04082 3.06122,-4.59184 z"
     id="path6"
     inkscape:connector-curvature="0" /><path
     d="m 395.40816,171.93878 c -4.08163,-7.14286 -13.2653,-4.08163 -16.83673,-2.55102 -2.55102,-1.53061 -6.12245,-3.06123 -8.67347,-3.57143 -4.08163,-0.5102 -8.16327,2.55102 -8.67347,6.63265 0,1.53062 0,3.06123 1.02041,4.59184 -2.55102,3.06122 -2.55102,7.14286 0,10.20408 1.02041,1.02041 2.55102,1.53061 3.57143,2.04082 0,0 0,0.5102 0,0.5102 0.5102,3.57143 3.57143,6.63266 7.65306,6.63266 0.5102,0 0.5102,0 1.02041,0 0.5102,0 1.0204,-0.51021 1.53061,-0.51021 0,2.55102 -0.51021,5.10204 -1.02041,7.65306 -1.02041,4.08164 1.53061,8.16327 5.61224,9.18368 0.51021,0 1.02041,0 1.53062,0 3.57143,0 6.63265,-2.55102 7.14285,-6.12245 0.51021,-2.04082 1.53062,-8.67347 1.02041,-15.30613 2.55102,-1.0204 4.59184,-3.57142 4.59184,-6.63265 0,-1.53061 0,-3.06122 -0.5102,-4.59184 2.55102,-2.04081 2.55102,-5.10204 1.0204,-8.16326 z"
     id="path8"
     inkscape:connector-curvature="0" /><path
     d="m 263.26531,256.63266 c 1.0204,1.02041 2.55102,1.53061 3.57142,1.53061 1.02041,0 2.55103,-0.5102 3.57143,-1.02041 0.51021,-0.5102 1.02041,-1.02041 2.04082,-1.53061 -1.02041,2.55102 -1.53061,5.61224 -1.02041,9.18367 0.51021,2.55102 2.55102,4.08164 5.10204,4.08164 0,0 0.51021,0 0.51021,0 2.55102,-0.51021 4.59183,-3.06123 4.08163,-5.61225 -0.51021,-3.06122 0.5102,-5.61224 1.53061,-7.14286 7.65306,6.12245 5.10204,27.04082 3.57143,34.69388 -0.5102,2.55102 1.02041,5.61225 4.08163,6.12245 0.51021,0 0.51021,0 1.02041,0 2.55102,0 4.59184,-1.53061 5.10204,-4.08163 0.51021,-3.06123 6.12245,-30.10204 -4.59184,-42.34694 1.53062,0.5102 2.55103,1.02041 3.57143,2.04081 0.51021,0.51021 1.02041,1.53062 1.02041,3.57143 0,2.55102 2.04082,5.10204 4.59184,5.61225 0,0 0.5102,0 0.5102,0 2.55102,0 4.59184,-2.04082 5.10204,-4.59184 0.51021,-4.59184 -1.02041,-7.65306 -2.55102,-9.69388 0.51021,0 1.02041,0 1.53061,-0.5102 2.55103,-1.53061 3.06123,-4.59184 2.04082,-7.14286 -1.02041,-1.53061 -4.08163,-6.63265 -20.40816,-0.5102 -0.51021,0 -1.02041,0.5102 -1.53061,1.02041 -3.06123,-2.04082 -10.71429,-6.12245 -15.30613,-6.63266 -2.55102,-0.5102 -5.10204,1.53062 -5.61224,4.59184 -0.51021,2.55102 1.53061,5.10204 4.59184,5.61225 0.5102,0 2.04081,0.5102 3.06122,1.0204 -2.55102,1.02041 -5.61225,2.55102 -8.16327,4.59184 -2.55102,2.04082 -2.55102,5.10204 -1.0204,7.14286 z"
     id="path10"
     inkscape:connector-curvature="0" /><circle
     cx="159.18367"
     cy="300.51022"
     r="6.6326528"
     id="circle12" /><circle
     cx="401.53061"
     cy="350.51019"
     r="6.6326528"
     id="circle14" /><circle
     transform="matrix(0.98509704,-0.17199948,0.17199948,0.98509704,0,0)"
     cx="327.42038"
     cy="459.0386"
     id="ellipse16"
     r="6.6326728" /><circle
     cx="340.81635"
     cy="389.28574"
     r="6.6326528"
     id="circle18" /><circle
     cx="219.89795"
     cy="307.14285"
     r="6.6326528"
     id="circle20" /><circle
     cx="178.57143"
     cy="245.40816"
     r="6.6326528"
     id="circle22" /><path
     d="m 129.08163,27.55102 c 0,-2.55102 -2.04081,-5.10204 -5.10204,-5.10204 -2.55102,0 -5.10204,2.04082 -5.10204,5.10204 l 0,49.4898 c 0,2.55102 2.04082,5.10204 5.10204,5.10204 2.55102,0 5.10204,-2.04082 5.10204,-5.10204 l 0,-49.4898 z"
     id="path24"
     inkscape:connector-curvature="0" /><path
     d="m 107.14286,27.55102 c 0,-2.55102 -2.04082,-5.10204 -5.10204,-5.10204 -2.551024,0 -5.102044,2.04082 -5.102044,5.10204 l 0,49.4898 c 0,2.55102 2.040816,5.10204 5.102044,5.10204 2.55102,0 5.10204,-2.04082 5.10204,-5.10204 l 0,-49.4898 z"
     id="path26"
     inkscape:connector-curvature="0" /><path
     d="m 84.693878,27.55102 c 0,-2.55102 -2.040817,-5.10204 -5.102041,-5.10204 -2.551021,0 -5.102041,2.04082 -5.102041,5.10204 l 0,49.4898 c 0,2.55102 2.040816,5.10204 5.102041,5.10204 2.55102,0 5.102041,-2.04082 5.102041,-5.10204 l 0,-49.4898 z"
     id="path28"
     inkscape:connector-curvature="0" /><path
     d="m 57.653061,22.95919 c -2.55102,0 -5.102041,2.04081 -5.102041,5.10204 l 0,35.71428 c 0,2.55102 2.040817,5.10205 5.102041,5.10205 3.061225,0 5.102041,-2.04082 5.102041,-5.10205 l 0,-35.71428 c 0,-3.06123 -2.55102,-5.10204 -5.102041,-5.10204 z"
     id="path30"
     inkscape:connector-curvature="0" /><path
     d="m 35.714286,22.95919 c -2.551021,0 -5.102041,2.04081 -5.102041,5.10204 l 0,35.71428 c 0,2.55102 2.040816,5.10205 5.102041,5.10205 3.061224,0 5.102041,-2.04082 5.102041,-5.10205 l 0,-35.71428 C 40.306122,25 38.265306,22.95919 35.714286,22.95919 Z"
     id="path32"
     inkscape:connector-curvature="0" /><path
     d="m 368.87755,58.16327 c 2.55102,0 5.10204,-2.04082 5.10204,-5.10204 l 0,-25.51021 c 0,-2.55102 -2.04081,-5.10204 -5.10204,-5.10204 -3.06122,0 -5.10204,2.04082 -5.10204,5.10204 l 0,25 c 0,3.06123 2.55102,5.61225 5.10204,5.61225 z"
     id="path34"
     inkscape:connector-curvature="0" /><path
     d="m 391.32653,77.04082 c 2.55102,0 5.10204,-2.04082 5.10204,-5.10204 l 0,-44.38776 c 0,-2.55102 -2.04081,-5.10204 -5.10204,-5.10204 -2.55102,0 -5.10204,2.04082 -5.10204,5.10204 l 0,44.38776 c 0,2.55102 2.04082,5.10204 5.10204,5.10204 z"
     id="path36"
     inkscape:connector-curvature="0" /><path
     d="m 413.26531,22.95919 c -2.55102,0 -5.10204,2.04081 -5.10204,5.10204 l 0,44.38775 c 0,2.55102 2.04081,5.10204 5.10204,5.10204 2.55102,0 5.10204,-2.04081 5.10204,-5.10204 l 0,-44.89796 c 0,-2.55102 -2.04082,-4.59183 -5.10204,-4.59183 z"
     id="path38"
     inkscape:connector-curvature="0" /><path
     d="m 435.71429,22.95919 c -2.55102,0 -5.10205,2.04081 -5.10205,5.10204 l 0,44.38775 c 0,2.55102 2.04082,5.10204 5.10205,5.10204 2.55102,0 5.10204,-2.04081 5.10204,-5.10204 l 0,-44.89796 C 440.30612,25 438.26531,22.95919 435.71429,22.95919 Z"
     id="path40"
     inkscape:connector-curvature="0" /><path
     d="m 457.65306,22.95919 c -2.55102,0 -5.10204,2.04081 -5.10204,5.10204 l 0,44.38775 c 0,2.55102 2.04082,5.10204 5.10204,5.10204 2.55102,0 5.10204,-2.04081 5.10204,-5.10204 l 0,-44.89796 c 0,-2.55102 -2.04081,-4.59183 -5.10204,-4.59183 z"
     id="path42"
     inkscape:connector-curvature="0" /><path
     d="m 88.77551,156.63266 c -2.55102,0 -5.102041,2.04081 -5.102041,5.10204 l 0,5.61224 c 0,2.55102 2.040817,5.10204 5.102041,5.10204 2.551021,0 5.102041,-2.04081 5.102041,-5.10204 l 0,-5.61224 c 0,-2.55102 -2.55102,-5.10204 -5.102041,-5.10204 z"
     id="path44"
     inkscape:connector-curvature="0" /><path
     d="m 110.71429,156.63266 c -2.55102,0 -5.10205,2.04081 -5.10205,5.10204 l 0,5.61224 c 0,2.55102 2.04082,5.10204 5.10205,5.10204 2.55102,0 5.10204,-2.04081 5.10204,-5.10204 l 0,-5.61224 c 0,-2.55102 -2.04082,-5.10204 -5.10204,-5.10204 z"
     id="path46"
     inkscape:connector-curvature="0" /><path
     d="m 138.26531,167.34694 0,-5.61224 c 0,-2.55102 -2.04082,-5.10204 -5.10204,-5.10204 -2.55103,0 -5.10205,2.04081 -5.10205,5.10204 l 0,5.61224 c 0,2.55102 2.04082,5.10204 5.10205,5.10204 2.55102,0 5.10204,-2.04081 5.10204,-5.10204 z"
     id="path48"
     inkscape:connector-curvature="0" /><path
     d="m 155.10204,153.06123 c -2.55102,0 -5.10204,2.04081 -5.10204,5.10204 l 0,9.69388 c 0,2.55102 2.04082,5.10204 5.10204,5.10204 3.06123,0 5.10204,-2.04082 5.10204,-5.10204 l 0,-9.69388 c 0,-3.06123 -2.04081,-5.10204 -5.10204,-5.10204 z"
     id="path50"
     inkscape:connector-curvature="0" /><path
     d="m 344.38776,86.7347 c -2.55103,0 -5.10205,2.04081 -5.10205,5.10204 l 0,51.53061 c 0,2.55102 2.04082,5.10204 5.10205,5.10204 2.55102,0 5.10204,-2.04081 5.10204,-5.10204 l 0,-51.53061 c 0,-3.06123 -2.04082,-5.10204 -5.10204,-5.10204 z"
     id="path52"
     inkscape:connector-curvature="0" /><path
     d="m 363.77551,143.36735 c 0,2.55102 2.04082,5.10204 5.10204,5.10204 3.06123,0 5.10204,-2.04081 5.10204,-5.10204 l 0,-30.10204 c 0,-2.55102 -2.04081,-5.10204 -5.10204,-5.10204 -3.06122,0 -5.10204,2.04082 -5.10204,5.10204 l 0,30.10204 z"
     id="path54"
     inkscape:connector-curvature="0" /></svg>