<?xml version="1.0" encoding="UTF-8" standalone="no"?>
<svg
   xmlns:dc="http://purl.org/dc/elements/1.1/"
   xmlns:cc="http://creativecommons.org/ns#"
   xmlns:rdf="http://www.w3.org/1999/02/22-rdf-syntax-ns#"
   xmlns:svg="http://www.w3.org/2000/svg"
   xmlns="http://www.w3.org/2000/svg"
   xmlns:sodipodi="http://sodipodi.sourceforge.net/DTD/sodipodi-0.dtd"
   xmlns:inkscape="http://www.inkscape.org/namespaces/inkscape"
   version="1.1"
   x="0px"
   y="0px"
   viewBox="0 0 500.00002 467.25553"
   xml:space="preserve"
   id="svg2"
   inkscape:version="0.91 r13725"
   sodipodi:docname="13.svg"
   width="500"
   height="467.25552"><metadata
     id="metadata108"><rdf:RDF><cc:Work
         rdf:about=""><dc:format>image/svg+xml</dc:format><dc:type
           rdf:resource="http://purl.org/dc/dcmitype/StillImage" /><dc:title></dc:title></cc:Work></rdf:RDF></metadata><defs
     id="defs106" /><sodipodi:namedview
     pagecolor="#ffffff"
     bordercolor="#666666"
     borderopacity="1"
     objecttolerance="10"
     gridtolerance="10"
     guidetolerance="10"
     inkscape:pageopacity="0"
     inkscape:pageshadow="2"
     inkscape:window-width="1680"
     inkscape:window-height="988"
     id="namedview104"
     showgrid="false"
     fit-margin-top="0"
     fit-margin-left="0"
     fit-margin-right="0"
     fit-margin-bottom="0"
     inkscape:zoom="1.0483181"
     inkscape:cx="96.360497"
     inkscape:cy="66.582843"
     inkscape:window-x="-8"
     inkscape:window-y="-8"
     inkscape:window-maximized="1"
     inkscape:current-layer="svg2" /><g
     id="g4"
     transform="matrix(2.5944362,0,0,2.5944362,0,0.00276405)"><circle
       cx="19"
       cy="124.662"
       r="4.0710001"
       id="circle6" /><ellipse
       cx="19"
       cy="112.109"
       rx="2.714"
       ry="6.447"
       id="ellipse8" /><ellipse
       cx="19"
       cy="137.216"
       rx="2.714"
       ry="6.447"
       id="ellipse10" /><ellipse
       transform="matrix(0.7072,-0.7071,0.7071,0.7072,-73.7034,53.6176)"
       cx="27.877001"
       cy="115.785"
       rx="6.4460001"
       ry="2.714"
       id="ellipse12" /><ellipse
       transform="matrix(0.7071,-0.7071,0.7071,0.7071,-91.4588,46.2684)"
       cx="10.124"
       cy="133.539"
       rx="6.4460001"
       ry="2.714"
       id="ellipse14" /><ellipse
       cx="31.554001"
       cy="124.662"
       rx="6.4460001"
       ry="2.714"
       id="ellipse16" /><ellipse
       cx="6.4460001"
       cy="124.662"
       rx="6.4460001"
       ry="2.714"
       id="ellipse18" /><ellipse
       transform="matrix(0.7071,-0.7071,0.7071,0.7071,-86.2635,58.8276)"
       cx="27.877001"
       cy="133.539"
       rx="2.714"
       ry="6.4460001"
       id="ellipse20" /><ellipse
       transform="matrix(0.7071,-0.7071,0.7071,0.7071,-78.9074,41.0711)"
       cx="10.124"
       cy="115.785"
       rx="2.714"
       ry="6.4460001"
       id="ellipse22" /><path
       d="m 28.434,180.098 c 0.002,0 0.004,-0.001 0.006,-0.001 l 16.56,0 c 0,-4.766 -9.989,-5.897 -14.389,-5.992 0.623,-3.465 0.886,-6.811 0.885,-9.962 -0.004,-14.165 -5.13,-24.412 -5.167,-24.494 -0.247,-0.493 -0.848,-0.693 -1.341,-0.446 -0.495,0.246 -0.695,0.846 -0.446,1.341 l -0.002,0 c 0.002,0.002 0.297,0.59 0.759,1.729 1.394,3.419 4.199,11.612 4.199,21.871 -0.001,3.158 -0.275,6.515 -0.927,9.989 C 23.864,174.344 15,175.608 15,180.097 l 13.428,0 c 0.002,0 0.004,0.001 0.006,0.001 z"
       id="path24"
       inkscape:connector-curvature="0" /><path
       d="m 18.972,157.764 c 5.541,1.897 7.42,0.996 8.003,-0.709 0.584,-1.705 -0.348,-3.568 -5.889,-5.465 -5.542,-1.898 -13.594,-3.11 -14.178,-1.406 -0.584,1.705 6.523,5.683 12.064,7.58 z"
       id="path26"
       inkscape:connector-curvature="0" /><path
       d="m 34.667,155.949 c 1.683,0.644 3.579,-0.22 5.671,-5.691 2.094,-5.471 3.593,-13.476 1.909,-14.119 -1.683,-0.645 -5.911,6.316 -8.004,11.787 -2.094,5.47 -1.26,7.379 0.424,8.023 z"
       id="path28"
       inkscape:connector-curvature="0" /><path
       d="m 164.234,137.124 c -4.811,2.212 -10.838,6.439 -10.156,7.919 0.681,1.48 7.812,-0.347 12.623,-2.56 4.81,-2.212 5.477,-3.974 4.796,-5.454 -0.681,-1.479 -2.453,-2.118 -7.263,0.095 z"
       id="path30"
       inkscape:connector-curvature="0" /><path
       d="m 147.993,143.233 c 1.411,-0.642 -0.298,-7.435 -2.384,-12.02 -2.085,-4.586 -3.759,-5.229 -5.169,-4.586 -1.411,0.641 -2.026,2.324 0.059,6.911 2.086,4.584 6.083,10.336 7.494,9.695 z"
       id="path32"
       inkscape:connector-curvature="0" /><path
       d="m 111.115,174.109 c -0.191,-2.194 -0.751,-6.124 -2.398,-10.542 0.023,-0.058 0.055,-0.111 0.068,-0.174 0,-0.002 0.11,-0.558 0.422,-1.53 0.943,-2.93 3.672,-9.244 10.081,-12.793 0.482,-0.268 0.658,-0.876 0.388,-1.358 -0.268,-0.484 -0.877,-0.658 -1.358,-0.39 -6.686,3.742 -9.645,9.983 -10.818,13.352 -1.615,-3.434 -3.93,-6.986 -7.263,-10.124 -0.404,-0.377 -1.036,-0.357 -1.414,0.047 -0.378,0.404 -0.357,1.036 0.047,1.414 5.151,4.829 7.749,10.816 9.051,15.615 0.651,2.397 0.975,4.494 1.138,5.983 0.02,0.182 0.037,0.353 0.052,0.515 -4.648,0.184 -13.778,1.418 -13.778,5.974 l 30,0 c 0,-4.705 -9.734,-5.868 -14.218,-5.989 z"
       id="path34"
       inkscape:connector-curvature="0" /><path
       d="m 134.689,180.097 30,0 c 0,-4.371 -8.406,-5.685 -13.193,-5.946 -0.131,-0.604 -0.271,-1.293 -0.411,-2.062 -0.564,-3.078 -1.126,-7.373 -1.126,-12.216 -0.002,-9.072 1.974,-20.007 9.482,-28.601 0.363,-0.417 0.32,-1.048 -0.094,-1.412 -0.416,-0.363 -1.048,-0.32 -1.41,0.097 -7.96,9.121 -9.977,20.577 -9.979,29.916 0.001,5.948 0.819,11.047 1.484,14.226 -4.183,0.04 -14.753,1.096 -14.753,5.998 z"
       id="path36"
       inkscape:connector-curvature="0" /><path
       d="m 159.652,103.885 c 1.492,2.358 2.898,4.656 4.218,6.893 l 1.021,-0.494 c -0.909,-2.436 -1.824,-4.97 -2.745,-7.605 -0.919,-2.636 -1.485,-4.171 -1.696,-4.607 -0.245,-0.506 -0.607,-0.852 -1.083,-1.035 -0.477,-0.184 -0.959,-0.158 -1.448,0.078 -0.489,0.237 -0.807,0.602 -0.957,1.095 -0.15,0.491 -0.104,0.987 0.136,1.484 0.211,0.435 1.063,1.833 2.554,4.191 z"
       id="path38"
       inkscape:connector-curvature="0" /><path
       d="m 173.368,129.029 c 0.488,-0.237 0.807,-0.602 0.957,-1.094 0.148,-0.492 0.104,-0.986 -0.137,-1.484 -0.213,-0.437 -1.063,-1.834 -2.555,-4.191 -1.492,-2.358 -2.898,-4.656 -4.217,-6.893 l -1.021,0.494 c 0.91,2.436 1.824,4.97 2.745,7.605 0.92,2.635 1.486,4.17 1.697,4.608 0.244,0.505 0.606,0.851 1.083,1.034 0.475,0.184 0.959,0.157 1.448,-0.079 z"
       id="path40"
       inkscape:connector-curvature="0" /><path
       d="m 166.931,95.391 c -0.542,-0.04 -1,0.117 -1.376,0.469 -0.374,0.351 -0.582,0.802 -0.623,1.354 -0.035,0.484 0.003,2.119 0.116,4.908 0.114,2.788 0.182,5.48 0.206,8.077 l 1.131,0.083 c 0.429,-2.564 0.905,-5.217 1.426,-7.96 0.521,-2.741 0.799,-4.354 0.834,-4.838 0.041,-0.56 -0.099,-1.04 -0.42,-1.437 -0.321,-0.399 -0.752,-0.617 -1.294,-0.656 z"
       id="path42"
       inkscape:connector-curvature="0" /><path
       d="m 163.475,123.822 c -0.522,2.742 -0.799,4.354 -0.835,4.838 -0.04,0.56 0.1,1.041 0.42,1.437 0.321,0.397 0.752,0.617 1.294,0.657 0.542,0.039 1,-0.117 1.376,-0.469 0.375,-0.351 0.583,-0.802 0.624,-1.354 0.034,-0.483 -0.004,-2.119 -0.116,-4.907 -0.113,-2.789 -0.182,-5.48 -0.207,-8.078 l -1.131,-0.082 c -0.43,2.562 -0.905,5.215 -1.425,7.958 z"
       id="path44"
       inkscape:connector-curvature="0" /><path
       d="m 175.6,98.403 c -0.449,-0.304 -0.925,-0.398 -1.426,-0.282 -0.502,0.117 -0.907,0.404 -1.217,0.861 -0.273,0.4 -1.058,1.836 -2.354,4.308 -1.296,2.471 -2.584,4.838 -3.861,7.099 l 0.939,0.637 c 1.654,-2.005 3.392,-4.065 5.213,-6.18 1.822,-2.114 2.869,-3.372 3.141,-3.773 0.316,-0.465 0.435,-0.951 0.355,-1.455 -0.077,-0.504 -0.343,-0.909 -0.79,-1.215 z"
       id="path46"
       inkscape:connector-curvature="0" /><path
       d="m 158.39,121.297 c -1.822,2.115 -2.869,3.373 -3.141,3.773 -0.316,0.465 -0.435,0.95 -0.356,1.455 0.08,0.506 0.344,0.91 0.793,1.216 0.449,0.305 0.924,0.398 1.425,0.281 0.501,-0.116 0.907,-0.403 1.217,-0.86 0.272,-0.401 1.057,-1.837 2.353,-4.309 1.295,-2.471 2.583,-4.837 3.86,-7.099 l -0.938,-0.637 c -1.653,2.005 -3.392,4.066 -5.213,6.18 z"
       id="path48"
       inkscape:connector-curvature="0" /><path
       d="m 180.506,104.39 c -0.492,-0.148 -0.988,-0.104 -1.484,0.138 -0.438,0.21 -1.834,1.062 -4.192,2.554 -2.358,1.492 -4.656,2.898 -6.893,4.218 l 0.495,1.021 c 2.435,-0.909 4.97,-1.824 7.605,-2.745 2.637,-0.92 4.172,-1.486 4.607,-1.698 0.506,-0.244 0.852,-0.605 1.035,-1.082 0.184,-0.477 0.158,-0.96 -0.078,-1.448 -0.238,-0.49 -0.603,-0.808 -1.095,-0.958 z"
       id="path50"
       inkscape:connector-curvature="0" /><path
       d="m 155.248,116.569 c -2.635,0.92 -4.17,1.485 -4.607,1.697 -0.506,0.245 -0.85,0.605 -1.034,1.083 -0.184,0.476 -0.158,0.959 0.079,1.447 0.236,0.489 0.601,0.808 1.094,0.957 0.493,0.149 0.987,0.104 1.484,-0.137 0.437,-0.211 1.834,-1.062 4.192,-2.555 2.359,-1.492 4.656,-2.897 6.894,-4.217 l -0.495,-1.021 c -2.437,0.91 -4.971,1.825 -7.607,2.746 z"
       id="path52"
       inkscape:connector-curvature="0" /><path
       d="m 182.668,115.655 c 0.396,-0.321 0.617,-0.753 0.654,-1.295 0.041,-0.541 -0.115,-0.999 -0.467,-1.375 -0.352,-0.375 -0.803,-0.583 -1.355,-0.624 -0.482,-0.036 -2.119,0.003 -4.906,0.116 -2.789,0.113 -5.481,0.182 -8.079,0.206 l -0.083,1.132 c 2.563,0.429 5.217,0.905 7.96,1.426 2.741,0.521 4.355,0.798 4.838,0.834 0.561,0.04 1.04,-0.099 1.438,-0.42 z"
       id="path54"
       inkscape:connector-curvature="0" /><path
       d="m 149.784,113.782 c 0.483,0.035 2.119,-0.003 4.908,-0.117 2.788,-0.111 5.48,-0.18 8.078,-0.205 l 0.082,-1.131 c -2.564,-0.43 -5.217,-0.905 -7.96,-1.426 -2.741,-0.521 -4.354,-0.8 -4.837,-0.834 -0.561,-0.042 -1.041,0.099 -1.438,0.419 -0.397,0.321 -0.615,0.753 -0.655,1.294 -0.04,0.541 0.117,1 0.469,1.376 0.351,0.376 0.802,0.584 1.353,0.624 z"
       id="path56"
       inkscape:connector-curvature="0" /><path
       d="m 179.096,123.821 c 0.505,-0.079 0.91,-0.343 1.215,-0.792 0.305,-0.449 0.398,-0.925 0.282,-1.425 -0.116,-0.502 -0.404,-0.907 -0.861,-1.219 -0.401,-0.271 -1.837,-1.057 -4.308,-2.353 -2.472,-1.297 -4.838,-2.583 -7.099,-3.86 l -0.637,0.939 c 2.005,1.653 4.065,3.392 6.179,5.214 2.114,1.821 3.373,2.869 3.774,3.141 0.465,0.316 0.95,0.434 1.455,0.355 z"
       id="path58"
       inkscape:connector-curvature="0" /><path
       d="m 151.553,105.758 c 0.401,0.272 1.838,1.057 4.308,2.353 2.471,1.297 4.838,2.583 7.1,3.86 l 0.637,-0.939 c -2.006,-1.654 -4.066,-3.392 -6.181,-5.214 -2.114,-1.822 -3.372,-2.869 -3.773,-3.141 -0.465,-0.316 -0.95,-0.435 -1.455,-0.356 -0.504,0.079 -0.91,0.343 -1.215,0.792 -0.305,0.45 -0.399,0.925 -0.282,1.425 0.117,0.504 0.404,0.909 0.861,1.22 z"
       id="path60"
       inkscape:connector-curvature="0" /><path
       d="m 115.992,62.857 c -18.56,18.602 27.348,18.551 8.744,-0.012 18.604,18.563 18.551,-27.347 -0.01,-8.743 18.561,-18.603 -27.348,-18.55 -8.744,0.01 -18.604,-18.559 -18.55,27.348 0.01,8.745 z m 4.363,-7.657 c 1.81,-0.002 3.28,1.465 3.283,3.275 0.002,1.812 -1.465,3.281 -3.275,3.283 -1.812,0.002 -3.281,-1.463 -3.284,-3.275 -0.002,-1.81 1.464,-3.281 3.276,-3.283 z"
       id="path62"
       inkscape:connector-curvature="0" /><path
       d="M 34.818,65.686 C 20.485,80.051 55.937,80.012 41.571,65.676 55.938,80.011 55.897,44.558 41.564,58.925 55.897,44.559 20.445,44.6 34.812,58.933 20.444,44.6 20.485,80.051 34.818,65.686 Z m 3.37,-5.914 c 1.398,-10e-4 2.533,1.131 2.535,2.529 0.002,1.4 -1.131,2.535 -2.529,2.537 -1.399,0.001 -2.534,-1.131 -2.536,-2.53 -0.001,-1.398 1.131,-2.534 2.53,-2.536 z"
       id="path64"
       inkscape:connector-curvature="0" /><path
       d="m 109.083,113.394 c -18.873,7.459 13.655,21.559 6.196,2.685 7.459,18.875 21.559,-13.655 2.686,-6.195 18.873,-7.46 -13.655,-21.559 -6.196,-2.686 -7.459,-18.874 -21.558,13.655 -2.686,6.196 z m 2.118,-2.763 c 0.556,-1.283 2.047,-1.873 3.33,-1.316 1.283,0.556 1.873,2.047 1.316,3.33 -0.556,1.284 -2.047,1.873 -3.33,1.317 -1.284,-0.558 -1.872,-2.048 -1.316,-3.331 z"
       id="path66"
       inkscape:connector-curvature="0" /><path
       d="m 49.631,71.703 c -0.504,-0.227 -1.095,-0.004 -1.323,0.5 -0.228,0.504 -0.002,1.095 0.502,1.323 13.427,6.064 20.326,15.261 23.92,22.969 1.794,3.852 2.753,7.328 3.259,9.833 0.508,2.505 0.557,3.99 0.564,3.992 0.009,0.212 0.096,0.395 0.214,0.551 -6.928,20.695 -7.961,42.823 -7.991,54.634 0,5.023 0.195,8.19 0.223,8.61 C 64.426,174.268 55,175.468 55,180.097 l 30,0 c 0,-4.635 -9.448,-5.832 -14.015,-5.982 0.001,-0.03 0.013,-0.056 0.011,-0.086 l 0,-0.002 c 0,-0.008 -0.22,-3.191 -0.22,-8.522 -0.017,-6.924 0.376,-17.406 2.093,-29.011 0.025,-0.074 0.072,-0.204 0.161,-0.417 1.012,-2.412 6.364,-13.062 26.795,-18.833 0.532,-0.15 0.839,-0.703 0.69,-1.232 -0.149,-0.532 -0.703,-0.841 -1.232,-0.692 -14.712,4.129 -22.019,10.875 -25.486,15.533 4.083,-22.428 13.419,-47.494 34.244,-59.032 0.481,-0.27 0.655,-0.877 0.385,-1.36 -0.269,-0.481 -0.876,-0.655 -1.36,-0.385 C 92.784,78.103 83.795,91.949 78.148,106.969 76.853,99.6 71.487,81.577 49.631,71.703 Z"
       id="path68"
       inkscape:connector-curvature="0" /><path
       d="m 64.177,117.191 c 2.892,1.172 9.009,2.63 9.009,2.63 0,0 -1.457,-6.117 -2.631,-9.01 -2.445,-6.033 -9.401,-9.135 -12.457,-6.079 -3.056,3.057 0.046,10.013 6.079,12.459 z"
       id="path70"
       inkscape:connector-curvature="0" /><path
       d="m 56.207,91.173 c 2.731,-1.511 7.712,-5.348 7.712,-5.348 0,0 -5.672,-2.715 -8.659,-3.623 -6.228,-1.895 -13.015,1.561 -12.562,5.858 0.453,4.3 7.813,6.264 13.509,3.113 z"
       id="path72"
       inkscape:connector-curvature="0" /><path
       d="m 67.921,82.262 c 0,0 2.981,-5.537 4.031,-8.477 2.189,-6.13 -0.939,-13.075 -5.253,-12.827 -4.315,0.247 -6.628,7.505 -3.752,13.345 1.378,2.8 4.974,7.959 4.974,7.959 z"
       id="path74"
       inkscape:connector-curvature="0" /><path
       d="m 88.254,82.262 c 0,0 2.981,-5.537 4.031,-8.477 2.19,-6.13 -0.939,-13.075 -5.253,-12.827 -4.315,0.247 -6.628,7.505 -3.752,13.345 1.379,2.8 4.974,7.959 4.974,7.959 z"
       id="path76"
       inkscape:connector-curvature="0" /><path
       d="m 86.419,111.965 c 0.898,1.825 3.242,5.187 3.242,5.187 0,0 1.943,-3.608 2.627,-5.524 1.427,-3.996 -0.612,-8.521 -3.424,-8.36 -2.812,0.161 -4.319,4.891 -2.445,8.697 z"
       id="path78"
       inkscape:connector-curvature="0" /><path
       d="m 90.83,121.913 c 0,0 1.857,3.653 3.042,5.307 2.471,3.45 7.351,4.354 8.821,1.951 1.47,-2.403 -1.558,-6.337 -5.753,-6.966 -2.011,-0.302 -6.11,-0.292 -6.11,-0.292 z"
       id="path80"
       inkscape:connector-curvature="0" /><path
       d="m 115.627,88.21 c 0.244,-4.315 -6.704,-7.437 -12.833,-5.242 -2.938,1.053 -8.471,4.04 -8.471,4.04 0,0 5.163,3.59 7.964,4.967 5.843,2.871 13.097,0.55 13.34,-3.765 z"
       id="path82"
       inkscape:connector-curvature="0" /><path
       d="m 102.156,146.986 c 0.387,1.743 1.686,5.097 1.686,5.097 0,0 2.407,-2.672 3.388,-4.163 2.048,-3.11 1.25,-7.393 -1.18,-7.841 -2.431,-0.446 -4.7,3.273 -3.894,6.907 z"
       id="path84"
       inkscape:connector-curvature="0" /><path
       d="m 131.683,142.752 c -0.843,-2.325 -5.199,-2.403 -7.928,0.129 -1.308,1.215 -3.546,4.031 -3.546,4.031 0,0 3.522,0.727 5.305,0.82 3.718,0.196 7.011,-2.656 6.169,-4.98 z"
       id="path86"
       inkscape:connector-curvature="0" /><path
       d="m 117.008,152.453 c 0,0 2.172,2.866 3.452,4.111 2.67,2.596 7.026,2.618 7.922,0.315 0.896,-2.305 -2.33,-5.232 -6.051,-5.124 -1.784,0.052 -5.323,0.698 -5.323,0.698 z"
       id="path88"
       inkscape:connector-curvature="0" /><path
       d="m 113.263,142.363 c 0.259,1.767 1.31,5.207 1.31,5.207 0,0 2.596,-2.489 3.684,-3.904 2.27,-2.952 1.788,-7.281 -0.603,-7.905 -2.393,-0.624 -4.929,2.918 -4.391,6.602 z"
       id="path90"
       inkscape:connector-curvature="0" /><path
       d="m 85.856,146.558 c -0.718,2.367 2.722,5.039 6.424,4.647 1.776,-0.188 5.254,-1.102 5.254,-1.102 0,0 -2.384,-2.693 -3.755,-3.835 -2.859,-2.385 -7.204,-2.074 -7.923,0.29 z"
       id="path92"
       inkscape:connector-curvature="0" /><path
       d="m 100.478,155.543 c 0,0 -3.546,-0.599 -5.331,-0.627 -3.724,-0.06 -6.91,2.911 -5.984,5.202 0.927,2.292 5.283,2.212 7.918,-0.417 1.264,-1.262 3.397,-4.158 3.397,-4.158 z"
       id="path94"
       inkscape:connector-curvature="0" /><path
       d="m 27.342,22.093 c 1.596,0.851 2.524,-0.33 4.548,1.364 0.627,0.527 3.498,3.604 5.945,1.301 0,0 -2.028,3.692 1.393,5.651 3.424,1.961 7.373,1.215 8.35,-0.702 0.978,-1.918 -0.634,-6.907 -1.153,-7.945 0,0 2.009,2.313 2.469,1.9 l 0.076,-0.069 c 0.459,-0.413 -1.627,-2.657 -1.627,-2.657 0.979,0.626 5.77,2.757 7.778,1.99 2.01,-0.768 3.172,-4.614 1.588,-8.226 C 55.124,11.089 51.236,12.712 51.236,12.712 53.787,10.525 51.031,7.343 50.575,6.662 49.106,4.471 50.378,3.671 49.702,1.995 48.416,-1.052 46.931,0.296 46.931,0.296 c -6.284,6.065 -2.853,16.929 -2.853,16.929 0,0 -0.417,-0.48 -0.841,-0.408 -0.376,-0.865 -1.627,-3.962 -1.067,-5.709 -0.051,-0.404 -0.424,-0.24 -0.448,-0.151 0,0 -0.641,2.181 1.488,5.864 -0.083,0.019 -0.167,0.053 -0.248,0.126 l -0.039,0.034 c -0.081,0.072 -0.123,0.152 -0.15,0.233 -3.435,-2.509 -5.672,-2.104 -5.672,-2.104 -0.093,0.014 -0.292,0.368 0.102,0.461 1.797,-0.37 4.745,1.204 5.563,1.668 -0.116,0.415 0.316,0.88 0.316,0.88 0,0 -10.436,-4.567 -17.134,1.037 0.001,0.002 -1.501,1.334 1.394,2.937 z"
       id="path96"
       inkscape:connector-curvature="0" /><path
       d="m 163.082,39.097 c 1.853,1.097 6.933,-0.195 8.002,-0.647 0,0 -2.436,1.858 -2.053,2.344 l 0.064,0.08 c 0.383,0.484 2.754,-1.455 2.754,-1.455 -0.687,0.938 -3.117,5.584 -2.479,7.637 0.639,2.055 4.405,3.458 8.109,2.105 3.704,-1.354 2.331,-5.336 2.331,-5.336 2.02,2.685 5.371,0.136 6.08,-0.276 2.279,-1.328 2.996,-0.007 4.713,-0.576 3.121,-1.09 1.869,-2.658 1.869,-2.658 -5.654,-6.655 -16.713,-3.919 -16.713,-3.919 0,0 0.506,-0.385 0.46,-0.813 0.887,-0.321 4.057,-1.374 5.765,-0.703 0.406,-0.025 0.268,-0.408 0.18,-0.438 0,0 -2.136,-0.778 -5.947,1.113 -0.014,-0.085 -0.042,-0.171 -0.109,-0.255 l -0.031,-0.041 c -0.067,-0.085 -0.144,-0.132 -0.224,-0.165 2.723,-3.27 2.46,-5.527 2.46,-5.527 -0.009,-0.094 -0.35,-0.315 -0.467,0.072 0.254,1.817 -1.503,4.659 -2.018,5.447 -0.405,-0.142 -0.898,0.259 -0.898,0.259 0,0 5.219,-10.126 0.051,-17.165 0,0 -1.234,-1.584 -3.017,1.203 -0.951,1.539 0.17,2.54 -1.649,4.453 -0.566,0.593 -3.819,3.262 -1.675,5.851 0,0 -3.556,-2.258 -5.728,1.032 -2.175,3.293 -1.681,7.282 0.17,8.378 z"
       id="path98"
       inkscape:connector-curvature="0" /></g></svg>