<?xml version="1.0" encoding="UTF-8" standalone="no"?>
<svg
   xmlns:dc="http://purl.org/dc/elements/1.1/"
   xmlns:cc="http://creativecommons.org/ns#"
   xmlns:rdf="http://www.w3.org/1999/02/22-rdf-syntax-ns#"
   xmlns:svg="http://www.w3.org/2000/svg"
   xmlns="http://www.w3.org/2000/svg"
   xmlns:sodipodi="http://sodipodi.sourceforge.net/DTD/sodipodi-0.dtd"
   xmlns:inkscape="http://www.inkscape.org/namespaces/inkscape"
   viewBox="0 0 100 125"
   version="1.1"
   x="0px"
   y="0px"
   id="svg2"
   inkscape:version="0.91 r13725"
   sodipodi:docname="19.svg">
  <metadata
     id="metadata16">
    <rdf:RDF>
      <cc:Work
         rdf:about="">
        <dc:format>image/svg+xml</dc:format>
        <dc:type
           rdf:resource="http://purl.org/dc/dcmitype/StillImage" />
      </cc:Work>
    </rdf:RDF>
  </metadata>
  <defs
     id="defs14" />
  <sodipodi:namedview
     pagecolor="#ffffff"
     bordercolor="#666666"
     borderopacity="1"
     objecttolerance="10"
     gridtolerance="10"
     guidetolerance="10"
     inkscape:pageopacity="0"
     inkscape:pageshadow="2"
     inkscape:window-width="1680"
     inkscape:window-height="988"
     id="namedview12"
     showgrid="false"
     inkscape:zoom="1.888"
     inkscape:cx="50"
     inkscape:cy="61.970339"
     inkscape:window-x="-8"
     inkscape:window-y="-8"
     inkscape:window-maximized="1"
     inkscape:current-layer="svg2" />
  <g
     id="g4">
    <path
       style="opacity:1;fill:#000000;fill-opacity:1;stroke:none;stroke-width:2;stroke-linejoin:miter;stroke-miterlimit:4;stroke-dasharray:none;stroke-opacity:1"
       d="m 43.848322,15.423469 c -5.148102,0.02308 -10.758499,2.035681 -15.33789,8.373047 l 23.392578,-0.53711 c -12.941751,-0.02575 -16.276933,5.285374 -16.339844,12.41211 3.2368,-3.437098 4.531215,-7.712572 16.970703,-7.175782 l -0.34375,0.509766 c -2.289752,5.510748 -5.424523,8.769411 -8.71289,11.617188 -1.969756,11.725073 -3.52413,12.215316 -5.177735,15.404296 0.606273,4.604794 0.657546,8.653166 0.253907,12.248047 -10.162582,0.725738 -16.603397,5.762061 -18.828125,10.601563 -3.016781,0.82745 -5.545158,-0.709401 -8.06836,-2.267578 l 0,4.546875 c 4.900337,2.34971 10.007935,3.317804 15.910156,-1.011719 5.255582,3.285412 10.360356,3.237875 15.279297,-0.882812 4.64785,4.063584 9.072781,3.663492 13.384766,1.009765 4.863587,2.496657 9.049271,0.929712 13.257813,-0.503906 4.798225,3.440933 9.596306,2.116805 14.394531,0.251953 3.394323,0.70466 4.843065,1.816245 5.55664,1.515625 l 0,-3.283203 c -2.155048,-0.215913 -3.904978,-1.512692 -5.050781,-4.419922 -5.18695,5.681855 -10.682703,6.143424 -16.542969,0.378906 -4.528902,5.343065 -8.346314,4.046976 -11.86914,0 -0.424723,0.121645 -0.92927,0.26925 -1.390625,0.404297 -0.921303,-1.016007 -1.995699,-2.133738 -3.533203,-3.560547 -3.072547,-1.311546 -6.14425,-2.098959 -9.216797,-2.40039 0.426804,-2.970202 0.835976,-5.919353 2.904297,-10.859375 l -1.642579,-2.777344 c 1.972626,-3.572032 4.264064,-7.461529 6.566407,-11.363281 l -1.263672,-2.525391 c 2.754664,-2.111669 5.806668,-5.305327 8.939453,-8.796875 2.652808,7.363135 2.501054,13.325125 2.777344,19.5 2.701102,-5.624481 5.442664,-11.213537 3.035156,-21.25 17.21758,-0.590173 17.69061,5.73071 20.535156,11.072266 3.81288,-9.575577 -11.279889,-18.953337 -20.445312,-18.03711 3.752663,-4.635119 6.131203,-4.048573 8.75,-4.375 -4.272961,-3.707461 -8.765225,-4.563702 -13.75,0.982422 -1.920184,-1.573162 -7.775543,-4.830455 -14.394532,-4.800781 z"
       id="path6" />
  </g>
</svg>
