<?xml version="1.0" encoding="UTF-8" standalone="no"?>
<svg
   xmlns:i="http://ns.adobe.com/AdobeIllustrator/10.0/"
   xmlns:dc="http://purl.org/dc/elements/1.1/"
   xmlns:cc="http://creativecommons.org/ns#"
   xmlns:rdf="http://www.w3.org/1999/02/22-rdf-syntax-ns#"
   xmlns:svg="http://www.w3.org/2000/svg"
   xmlns="http://www.w3.org/2000/svg"
   xmlns:sodipodi="http://sodipodi.sourceforge.net/DTD/sodipodi-0.dtd"
   xmlns:inkscape="http://www.inkscape.org/namespaces/inkscape"
   version="1.1"
   x="0px"
   y="0px"
   viewBox="0 0 100 125"
   enable-background="new 0 0 100 100"
   xml:space="preserve"
   id="svg2"
   inkscape:version="0.91 r13725"
   sodipodi:docname="22.svg"><metadata
     id="metadata18"><rdf:RDF><cc:Work
         rdf:about=""><dc:format>image/svg+xml</dc:format><dc:type
           rdf:resource="http://purl.org/dc/dcmitype/StillImage" /></cc:Work></rdf:RDF></metadata><defs
     id="defs16" /><sodipodi:namedview
     pagecolor="#ffffff"
     bordercolor="#666666"
     borderopacity="1"
     objecttolerance="10"
     gridtolerance="10"
     guidetolerance="10"
     inkscape:pageopacity="0"
     inkscape:pageshadow="2"
     inkscape:window-width="671"
     inkscape:window-height="480"
     id="namedview14"
     showgrid="false"
     inkscape:zoom="1.888"
     inkscape:cx="50"
     inkscape:cy="61.970339"
     inkscape:window-x="0"
     inkscape:window-y="0"
     inkscape:window-maximized="0"
     inkscape:current-layer="svg2" /><switch
     id="switch4"><foreignObject
       requiredExtensions="http://ns.adobe.com/AdobeIllustrator/10.0/"
       x="0"
       y="0"
       width="1"
       height="1" /><g
       i:extraneous="self"
       id="g6"><path
         fill="#000000"
         d="M89.521,75.166c-0.495-1.891-5.868-20.735-6.586-23.244c-0.833-2.858-3.574-5.115-7.719-6.334    c-1.497-0.446-2.858-1.486-3.092-1.924c0.035-0.797,0.548-2.07,1.039-3.306c0.69-1.747,1.477-3.717,1.477-5.51    c0-3.689-1.771-7.638-6.752-7.638c-4.982,0-6.744,3.949-6.744,7.638c0,1.282,0.393,2.644,0.876,3.959    c-1.201-0.187-2.445-0.214-3.745-0.241c-1.737-0.035-3.537-0.072-5.285-0.503c-2.104-0.518-2.972-1.611-3.036-1.825    c0-0.779,0.53-2.105,1.039-3.396c0.69-1.738,1.479-3.716,1.479-5.508c0-3.69-1.773-7.633-6.754-7.633    c-4.972,0-6.745,3.943-6.745,7.633c0,1.792,0.779,3.771,1.477,5.508c0.485,1.245,0.996,2.517,1.031,3.314    c-0.234,0.438-1.586,1.478-3.081,1.916c-2.356,0.698-6.62,2.339-8.715,5.509c-0.6,0.916-1.738,2.473-3.026,4.219    c-0.297-0.045-0.611-0.061-0.923-0.061c-3.289,0-5.332,2.302-5.332,6.011c0,0.707,0.153,1.44,0.358,2.13    c-1.576,2.26-2.561,3.817-2.75,4.562c-0.179,0.688-0.196,1.334-0.061,1.925c-1.971,0.995-3.262,2.384-3.745,4.057    c-0.261,0.905-0.958,3.154-1.703,5.528c-0.95,3.035-1.844,5.893-2.049,6.682c-0.43,1.666,0.304,3.074,1.925,3.682    c0.564,0.216,1.219,0.162,1.836-0.152c0.832-0.402,1.505-1.191,1.764-2.043c0.018-0.08,0.037-0.133,0.071-0.196    c0.271-0.376,0.485-0.779,1.021-2.84c0.27-1.012,0.512-1.872,0.726-2.58v8.608c0,0.645,0.53,1.166,1.165,1.166    c0.645,0,1.166-0.521,1.166-1.166v-1.04v-9.107c0-0.44,0.016-0.791,0.026-1.066c0.043-0.933,0.08-1.811-1.049-2.437    c-0.365-0.207-0.806-0.224-1.209-0.046c-0.518,0.224-1.389,0.602-3.073,7.077c-0.474,1.811-0.618,2.016-0.661,2.079    c-0.171,0.231-0.279,0.438-0.412,0.876c-0.1,0.307-0.45,0.602-0.629,0.664c-0.5-0.215-0.528-0.447-0.41-0.896    c0.188-0.735,1.154-3.833,2.016-6.567c0.742-2.391,1.45-4.657,1.717-5.578c0.316-1.085,1.292-2.044,2.804-2.759    c0.215-0.1,0.438-0.199,0.683-0.29c0.224-0.088,0.465-0.179,0.732-0.249c0.057-0.018,0.118-0.036,0.171-0.052    c0.404-0.127,0.95-0.344,1.497-0.647c0.315-0.171,0.618-0.356,0.906-0.583c0.759-0.564,1.359-1.289,1.359-2.096    c0-0.126-0.009-0.249-0.015-0.375c-0.102-0.878-0.487-1.854-0.889-2.884c-0.116-0.286-0.223-0.574-0.341-0.869    c0-0.018-0.008-0.037-0.018-0.054c-0.153-0.402-0.322-0.87-0.44-1.326c-0.098-0.403-0.167-0.788-0.167-1.137    c0-0.206,0.008-0.422,0.027-0.637c0,0,0,0,0-0.01c0.116-1.289,0.634-2.614,2.167-2.947c0.241-0.062,0.509-0.089,0.815-0.089    c0.232,0,0.447,0.019,0.652,0.063c0.44,0.063,0.817,0.206,1.13,0.428c0.018,0.011,0.035,0.028,0.053,0.037    c1.058,0.815,1.174,2.472,1.174,3.154c0,0.205-0.026,0.446-0.082,0.707c0,0.054-0.017,0.116-0.028,0.169    c-0.006,0.019-0.015,0.046-0.015,0.072c-0.18,0.763-0.512,1.604-0.844,2.418c-0.1,0.261-0.198,0.512-0.294,0.763    c-0.342,0.895-0.621,1.755-0.621,2.516c0,0.109,0.012,0.216,0.03,0.322c0.222,1.282,1.744,2.518,3.788,3.009    c2.023,0.504,2.839,1.568,3.797,2.806c0.252,0.331,0.511,0.654,0.77,0.958c0.082,0.1,0.163,0.196,0.251,0.288v0.572v2.588    c-0.689-0.465-1.28-0.913-1.594-1.165c-0.161-0.115-0.251-0.195-0.251-0.195c-0.375-0.296-0.896-0.34-1.317-0.108    c-1.102,0.637-1.064,1.505-1.02,2.437c0,0.056,0,0.109,0.008,0.172c0.009,0.241,0.019,0.536,0.019,0.887v10.147    c0,0.645,0.52,1.166,1.164,1.166c0.636,0,1.165-0.521,1.165-1.166v-2.829v-7.318c0-0.162-0.01-0.323-0.01-0.467    c0.548,0.385,1.185,0.815,1.837,1.191v2.151v0.976v5.991c0,0.646,0.52,1.166,1.164,1.166c0.637,0,1.166-0.521,1.166-1.166V81    v-4.185V60.003v-5.169c0-0.601,0.017-1.076,0.037-1.451c0.052-1.22,0.098-2.187-1.192-2.885c-1.262-0.689-3.521-0.188-5.76,1.629    c-0.224-1.156-0.744-2.471-1.935-3.375c-0.026-0.02-0.053-0.046-0.09-0.062c1.183-1.605,2.16-2.949,2.732-3.817    c1.236-1.872,3.952-3.532,7.434-4.569c1.918-0.563,4.757-2.248,4.757-4.066c0-1.228-0.583-2.696-1.201-4.247    c-0.618-1.547-1.305-3.314-1.305-4.657c0-1.979,0.573-5.311,4.415-5.311c3.852,0,4.424,3.331,4.424,5.311    c0,1.343-0.698,3.11-1.317,4.657c-0.609,1.551-1.191,3.02-1.191,4.247c0,1.656,2.062,3.413,4.802,4.083    c1.998,0.493,3.925,0.529,5.786,0.574c1.747,0.035,3.405,0.071,4.802,0.51c0.034,0.1,0.073,0.197,0.105,0.295    c0.287,0.763,0.494,1.462,0.521,1.963c-0.233,0.428-1.542,1.441-3,1.897c-0.026,0.011-0.055,0.019-0.081,0.027    c-2.167,0.636-5.098,1.917-6.755,4.327c-0.019,0.019-0.035,0.037-0.043,0.053c-0.027,0.046-0.055,0.092-0.072,0.136    c-0.027,0.064-0.062,0.134-0.081,0.197c-0.016,0.073-0.027,0.151-0.035,0.224c0,0.034-0.01,0.081-0.01,0.116    c-0.018,0.277-0.009,0.591,0.01,0.978c0.02,0.376,0.035,0.841,0.035,1.442v3.421v26.325c0,0.646,0.521,1.166,1.165,1.166    c0.646,0,1.164-0.521,1.164-1.166v-16.93c0.686-2.615,1.266-4.435,1.719-5.642c-0.004,0.106-0.004,0.218-0.004,0.332v22.544    c0,0.644,0.521,1.162,1.165,1.162c0.643,0,1.164-0.519,1.164-1.162V60.567c0-0.599,0.02-1.073,0.037-1.452    c0.053-1.167,0.1-2.179-1.188-2.878c-0.39-0.219-0.856-0.239-1.274-0.062c-0.314,0.137-0.824,0.363-1.618,2.122v-5.436    c0-0.546-0.017-0.984-0.035-1.344c-0.01-0.196-0.01-0.368-0.019-0.511c0.601-0.779,1.479-1.487,2.589-2.076    c0.809-0.44,1.73-0.817,2.75-1.113c1.918-0.574,4.747-2.258,4.747-4.076c0-1.093-0.464-2.381-1.002-3.753    c-0.063-0.16-0.137-0.322-0.198-0.491c-0.618-1.552-1.316-3.306-1.316-4.65c0-1.986,0.572-5.31,4.426-5.31    c3.852,0,4.425,3.323,4.425,5.31c0,1.345-0.698,3.099-1.317,4.65c-0.617,1.547-1.2,3.02-1.2,4.245    c0,1.818,2.838,3.502,4.757,4.076c1.953,0.574,5.337,1.953,6.153,4.748c0.709,2.5,6.073,21.311,6.557,23.183    c0.197,0.743,0.107,1.308-0.896,1.692c-0.242,0.045-1.058-0.483-1.264-1.172c-0.385-1.272-1.915-6.747-2.992-10.867    c-2.211-8.501-3.35-8.993-3.897-9.227c-0.42-0.18-0.885-0.161-1.271,0.054c-1.289,0.707-1.243,1.677-1.19,2.893    c0.009,0.379,0.036,0.854,0.036,1.442v22.547c0,0.645,0.519,1.166,1.162,1.166c0.637,0,1.166-0.521,1.166-1.166V60.564    c0-0.116-0.009-0.223-0.009-0.329c0.465,1.226,1.056,3.071,1.747,5.758c1.093,4.147,2.624,9.658,3.019,10.947    c0.304,1.021,1.155,2.005,2.149,2.499c0.732,0.357,1.495,0.43,2.147,0.188C89.171,78.867,90.041,77.209,89.521,75.166z     M22.257,60.252c-0.241,0.312-1.109,0.949-2.067,1.227c0-0.144,0.035-0.293,0.073-0.446c0.106-0.358,0.679-1.282,1.487-2.471    C21.998,59.213,22.213,59.83,22.257,60.252z M35.552,52.53v0.009c0.008,0.171,0,0.468-0.019,0.744    c-0.018,0.403-0.037,0.905-0.037,1.551v5.169v4.082c-0.921-1.066-2.141-2.097-4.264-2.614c-1.245-0.305-1.908-0.923-2.041-1.156    c0.035-0.544,0.402-1.458,0.751-2.339c0.313-0.804,0.645-1.628,0.869-2.471C33.053,52.81,35.175,52.415,35.552,52.53z"
         id="path8" /></g></switch></svg>