<?xml version="1.0" encoding="UTF-8" standalone="no"?>
<svg
   xmlns:dc="http://purl.org/dc/elements/1.1/"
   xmlns:cc="http://creativecommons.org/ns#"
   xmlns:rdf="http://www.w3.org/1999/02/22-rdf-syntax-ns#"
   xmlns:svg="http://www.w3.org/2000/svg"
   xmlns="http://www.w3.org/2000/svg"
   xmlns:sodipodi="http://sodipodi.sourceforge.net/DTD/sodipodi-0.dtd"
   xmlns:inkscape="http://www.inkscape.org/namespaces/inkscape"
   version="1.1"
   x="0px"
   y="0px"
   viewBox="0 0 100 125"
   enable-background="new 0 0 100 100"
   xml:space="preserve"
   id="svg2"
   inkscape:version="0.91 r13725"
   sodipodi:docname="24.svg"><metadata
     id="metadata14"><rdf:RDF><cc:Work
         rdf:about=""><dc:format>image/svg+xml</dc:format><dc:type
           rdf:resource="http://purl.org/dc/dcmitype/StillImage" /></cc:Work></rdf:RDF></metadata><defs
     id="defs12" /><sodipodi:namedview
     pagecolor="#ffffff"
     bordercolor="#666666"
     borderopacity="1"
     objecttolerance="10"
     gridtolerance="10"
     guidetolerance="10"
     inkscape:pageopacity="0"
     inkscape:pageshadow="2"
     inkscape:window-width="671"
     inkscape:window-height="480"
     id="namedview10"
     showgrid="false"
     inkscape:zoom="1.888"
     inkscape:cx="50"
     inkscape:cy="61.970339"
     inkscape:window-x="0"
     inkscape:window-y="0"
     inkscape:window-maximized="0"
     inkscape:current-layer="svg2" /><path
     stroke="#010101"
     stroke-width="1.6057"
     stroke-miterlimit="10"
     d="M6.56,33.027l2.447-3.012h6.212l4.518-1.129l2.635-0.941  v2.541l3.388,4.047l1.882,6.588l3.765,4.329l5.647-1.506l5.271-5.082l6.024-3.577l5.271-0.941l4.141-4.706l4.894-3.388h5.647  c3.127,1.036,5.048,3.064,5.835,6.024l3.765,3.576l6.212,3.388l5.271,5.271l0.941,7.718v4.329v1.882l1.882,2.635v3.577l-2.259,2.071  l-1.318-0.941l-0.376,0.941l-1.318-4.894l-0.376,4.894l-0.188,3.2l1.506,6.212l-2.259,4.329l-2.071,5.082l-2.071,6.4l-4.141,1.318  l-2.635-0.941l4.518-2.635l1.318-6.588l0.941-6.965l-0.753-6.965l-1.318-6.4l-0.941-4.894l-2.635-2.259l-6.4,3.765l-8.659,1.318  l-8.847-0.941l1.694,9.412l1.129,6.777l0.753,11.671v3.012l-4.706,1.506l-1.412-1.506l2.353-3.953l-0.188-7.153l-1.694-8.282  l-2.071-5.459c-0.453-2.199-0.896-4.352-1.318-6.4l-5.835-2.635l-9.035-0.753c-3.802-1.086-6.929-3.335-9.035-7.341  c-2.112-2.655-2.763-5.476-1.882-8.471l-5.082-3.576L9.76,35.474h-3.2l1.506-1.882L6.56,33.027z"
     fill="#000000"
     id="path4" /></svg>