<?xml version="1.0" encoding="UTF-8" standalone="no"?>
<svg
   xmlns:dc="http://purl.org/dc/elements/1.1/"
   xmlns:cc="http://creativecommons.org/ns#"
   xmlns:rdf="http://www.w3.org/1999/02/22-rdf-syntax-ns#"
   xmlns:svg="http://www.w3.org/2000/svg"
   xmlns="http://www.w3.org/2000/svg"
   xmlns:sodipodi="http://sodipodi.sourceforge.net/DTD/sodipodi-0.dtd"
   xmlns:inkscape="http://www.inkscape.org/namespaces/inkscape"
   version="1.1"
   x="0px"
   y="0px"
   viewBox="0 0 89 69.268562"
   xml:space="preserve"
   id="svg2"
   inkscape:version="0.91 r13725"
   sodipodi:docname="41.svg"
   width="89"
   height="69.268562"><metadata
     id="metadata280"><rdf:RDF><cc:Work
         rdf:about=""><dc:format>image/svg+xml</dc:format><dc:type
           rdf:resource="http://purl.org/dc/dcmitype/StillImage" /><dc:title></dc:title></cc:Work></rdf:RDF></metadata><defs
     id="defs278" /><sodipodi:namedview
     pagecolor="#ffffff"
     bordercolor="#666666"
     borderopacity="1"
     objecttolerance="10"
     gridtolerance="10"
     guidetolerance="10"
     inkscape:pageopacity="0"
     inkscape:pageshadow="2"
     inkscape:window-width="1680"
     inkscape:window-height="988"
     id="namedview276"
     showgrid="false"
     fit-margin-top="0"
     fit-margin-left="0"
     fit-margin-right="0"
     fit-margin-bottom="0"
     inkscape:zoom="1.888"
     inkscape:cx="43.464831"
     inkscape:cy="17.46428"
     inkscape:window-x="-8"
     inkscape:window-y="-8"
     inkscape:window-maximized="1"
     inkscape:current-layer="svg2" /><style
     type="text/css"
     id="style4">
	.st0{fill:none;}
	.st1{fill:none;stroke:#000000;stroke-width:0;stroke-linecap:round;stroke-linejoin:round;}
</style><path
     d="m 0.6,34.372505 c 0.7,0.1 -0.2,0.1 -0.6,-0.2 0.1,0 -0.1,0 0.6,0.2"
     id="path6"
     inkscape:connector-curvature="0" /><path
     d="m 6.2,36.872505 c -0.1,0.1 -1.1,-0.3 -1.6,-0.5 l 1.6,0.5 z"
     id="path8"
     inkscape:connector-curvature="0" /><g
     id="g10"
     transform="translate(-6.8,-15.727495)"><path
       class="st0"
       d="m 54.6,42 c 0,0.1 0.1,0.1 0,0 0.1,0.1 0.1,0 0,0 z"
       id="path12"
       inkscape:connector-curvature="0"
       style="fill:none" /><path
       class="st0"
       d="m 55.3,48.7 c -0.1,-0.3 0.2,-0.8 0.3,-0.9 0,0 -0.1,-0.2 0.1,-0.2 -0.3,-0.2 -0.6,-0.9 -0.6,-0.9 0.1,0 0,-0.1 -0.1,-0.1 0.3,0 0.1,-0.1 0.2,-0.1 -0.1,0 -0.1,0 0,-0.1 0,0 0,0 0,-0.1 -0.1,0 0,0 0,0 0,0 0.1,0 0.2,0 -0.6,-0.5 0.2,-0.9 0,-1 0,0 0,0 0,0 0,0 0,0 0,0 0,0 0,-0.3 0,-0.5 0,0 -0.1,0 -0.2,0 l -0.1,0 c 0.1,0 0.1,0 0.1,0 0,0 0,0 0,0 0,0 0.1,-0.4 0.2,-0.2 0.1,-0.1 0.1,-0.2 0,-0.2 -0.7,-0.1 -0.2,-0.1 -0.2,-0.3 -0.3,-0.1 0,0 -0.4,-0.3 0,0 0.1,0 0.2,0 0.2,-0.1 -0.3,-0.6 -0.3,-0.6 0.3,0 0.4,-0.1 0.3,-0.2 -0.1,0 -0.3,-0.1 0,-0.1 0.1,0.2 0,-0.1 -0.2,-0.1 0.4,-0.2 -0.2,-0.2 0.4,-0.3 -0.4,-0.2 -0.2,-0.2 -0.1,-0.2 0,0 -0.2,-0.1 -0.3,-0.1 0,0 0.3,-0.2 0.3,-0.2 0,0 -0.1,0 -0.2,0 0.3,-0.1 0.1,-0.1 0.1,-0.2 0,0 0.2,-0.1 0.1,-0.1 0.3,0 0.3,0 0.1,-0.1 0,0 -0.3,0 -0.3,-0.1 0.4,0 -0.2,-0.1 0.2,0 l 0.1,0 c -0.1,0 -0.3,0 -0.2,-0.1 0,0 0,0 -0.1,-0.1 0,0 0,-0.2 0.3,-0.1 0,0.1 -1,-0.5 -0.1,-0.5 -0.3,-0.1 -0.4,-0.3 -0.3,-0.2 l -0.1,0 c 0.2,0 0,-0.2 -0.1,-0.2 0.6,0 -0.7,-0.1 0.3,-0.1 -0.3,0 -0.4,-0.1 -0.4,-0.4 0,0 0.1,-0.1 0.3,0 0,0 -0.9,-0.2 -0.1,-0.1 -0.3,-0.1 -0.1,-0.1 0.6,0 0.7,0.1 -0.3,-0.1 -0.5,-0.1 -0.1,0 -0.5,0.1 0.1,-0.2 -0.9,0 -0.4,-0.1 -0.2,-0.1 0,0 0,-0.1 0.1,-0.1 C 54.2,39 54.2,39 54,39 c 0,-0.1 0,0 0.1,-0.1 -0.5,0 0.1,0 0.1,-0.1 0.4,0.1 -0.2,-0.1 -0.2,-0.1 0.4,0 0.4,-0.2 0.1,0 0,0 0,-0.1 0.3,-0.1 l 0.2,0 c 0.2,-0.1 1,-0.2 -0.5,-0.1 0.1,0 0.2,-0.1 0.4,-0.1 -0.1,0 -0.4,-0.1 -0.5,-0.1 -0.1,0 0.7,0.1 0.7,0 -0.1,-0.1 -0.5,-0.1 -0.7,-0.1 l -0.1,0 c 0.3,0 -0.1,0 -0.1,-0.1 0.2,-0.1 0.4,0 0.6,0 0,0 -0.4,-0.1 -0.4,-0.2 0.3,0 0.5,0.1 0.8,0.1 -0.2,0 -0.4,-0.1 -0.4,-0.2 0.2,0.1 0.3,0 0.3,-0.2 0,0 -0.3,0 -0.5,0 -0.1,0.1 -0.3,0.1 -0.2,0 0,0 0,0 0.2,0 0,0 0.1,-0.1 0,-0.1 -0.5,-0.3 0.2,-0.1 0.5,0 -0.1,-0.5 -0.3,-1 -0.4,-1.5 -0.2,0.1 -0.4,0.3 -0.6,0.4 0.2,0 -0.3,-0.9 -0.6,-0.2 0.4,0 0.2,0.2 0.2,0.2 -0.2,0.2 -1.8,0.6 -2.3,0.6 0.8,-1.2 0.1,-0.2 -0.5,0 -0.5,0.1 -1.7,0.3 -2.5,0.4 -1.7,0.4 -4.2,1 -6.2,1.2 0,-0.4 -1.4,0.2 -2.2,0.6 -0.6,0.1 -5.6,0.3 -5.9,1.2 -0.5,0 -0.2,0 -0.8,0.1 0.2,0.1 0.5,0.1 0.7,0.1 -0.1,0 -0.1,0 -0.2,0 0.5,0 1.1,0.4 1.3,0.4 l 0,0 c 0.1,0 0.2,0.1 0.3,0.1 0.1,0.2 3.6,1.3 4.6,1.6 2.4,0.8 5.2,1.8 7.7,2.7 3.4,1.5 4.9,2.7 8,3.3 -0.1,0.1 -0.1,0 0,0 z m -0.7,-6.2 0,0 c 0,0 0.1,0 0,0 z m -0.5,-3.9 c 0.1,0 -0.1,0 0,0 l 0,0 z m 0.3,-0.5 c 0,0.1 -0.3,0 0,0 l 0,0 z m 0.2,-0.2 c -0.1,0 -0.2,-0.1 -0.2,-0.1 l 0.2,0.1 z m -0.4,0.2 c -0.1,0 -0.1,0 -0.1,0 0,0 0,0 0.1,0 z m 0.3,6 c 0,0 0,0 0.1,0 -0.1,0 -0.1,0 -0.1,0 z"
       id="path14"
       inkscape:connector-curvature="0"
       style="fill:none" /><path
       class="st0"
       d="m 59.4,47.2 c 4,-2.9 9.6,-5 14.4,-7.1 0.4,-0.1 0.9,-0.3 1.3,-0.3 -0.4,0 -0.5,0 -0.1,0 -0.3,0.1 -0.6,0.1 -0.9,0.1 l -0.1,0 c -0.4,0 0.1,-0.2 -0.1,-0.2 l -0.3,0.1 c -5.2,0.6 -11.3,-2.1 -16.8,-2.7 -0.2,0.6 -0.5,1.3 -0.8,1.9 0.1,0.1 -0.1,0.4 0.3,0.6 -0.1,0 -0.1,0.3 0,0.5 -0.2,-0.1 -0.1,0.2 0,0.5 0,0.2 0,0.7 0.1,1.6 0,0.1 -0.1,0.7 -0.3,0.7 0,0 0.3,0.4 0.3,0.5 -0.2,0.1 -0.6,0.3 -0.4,0.4 0.3,0.1 1.1,2.5 0.3,2.7 0.3,0 0.3,0.4 0.2,0.5 l 0,0 c 0,0.1 -0.1,0.7 -0.2,1.3 1.1,-0.4 2.2,-0.3 3.1,-1.1 z"
       id="path16"
       inkscape:connector-curvature="0"
       style="fill:none" /><path
       class="st0"
       d="m 77,59.7 c -0.2,-0.1 -0.2,-0.1 -0.2,-0.2 -0.1,0.1 -0.1,0.1 -0.2,0.2 0.2,0 0.4,0.1 0.4,0 z"
       id="path18"
       inkscape:connector-curvature="0"
       style="fill:none" /><path
       class="st0"
       d="m 66.1,37.8 c 0.3,0 1.3,0.1 1.8,0.4 1.3,-0.5 3.1,0 4.6,0.1 0.8,0.1 2.3,-0.1 3.2,0.3 0.3,0 1,0.3 1.4,0.3 0.2,-1.2 1.2,-2.8 1.6,-3.8 0.9,-1.9 2.1,-4.3 2.7,-6.6 0.8,-2 1.5,-5 2.3,-7.3 l 0.3,-0.7 0.1,-0.4 0,-0.1 0.1,-0.3 -0.2,0 -0.1,0 c -3.1,-0.3 -6.2,-0.6 -9.3,-0.9 -2.1,-0.2 -4.2,-0.4 -6.3,-0.6 -1,-0.1 -2.1,-0.2 -3.1,-0.3 -1.4,-0.7 -2.1,-0.2 -2.1,1.3 -2,2.7 -2.7,7.7 -3.8,10.9 -0.8,2.1 -1.4,4.4 -2.2,6.6 2.4,-0.7 7,0.4 9,1.1 z"
       id="path20"
       inkscape:connector-curvature="0"
       style="fill:none" /><path
       class="st0"
       d="m 76.6,59.9 c 0.2,0.1 0.3,0 0.3,-0.2 0,0 -0.2,0 -0.4,0 0,0 -0.1,0 -0.1,0.1 l 0.2,0.1 c -0.1,-0.1 -0.2,-0.1 -0.2,-0.1 -0.1,0 -0.1,0.1 -0.2,0.1 0.3,0 0.5,0.1 0.8,0.1 -0.2,0 -0.4,-0.1 -0.4,-0.1 z"
       id="path22"
       inkscape:connector-curvature="0"
       style="fill:none" /><path
       class="st0"
       d="m 77,59.3 c 0.1,0 0.1,0 0,0 0.1,0 0,0 0,0 0,0 0.1,0 0,0 0,0 0,0 0,0 z"
       id="path24"
       inkscape:connector-curvature="0"
       style="fill:none" /><path
       class="st0"
       d="m 28.8,65.5 c -0.1,0 0,0 0,0 0,0 0,0 0,0 z"
       id="path26"
       inkscape:connector-curvature="0"
       style="fill:none" /><path
       class="st0"
       d="m 28.6,63.3 c 0,0 -0.1,0 -0.1,0 0.1,0 0.3,0 0.7,0.1 0.7,0.1 -0.3,-0.1 -0.6,-0.1 z"
       id="path28"
       inkscape:connector-curvature="0"
       style="fill:none" /><path
       class="st0"
       d="m 80.6,34.6 c -0.4,0.6 -0.5,1.3 -0.6,2 0.3,-0.6 0.2,-1.4 0.6,-2 z"
       id="path30"
       inkscape:connector-curvature="0"
       style="fill:none" /><path
       class="st0"
       d="M 77.7,59.1 C 77.8,59 77.9,58.9 78,58.8 L 77.6,59 c 0,0.1 0,0.1 0.1,0.1 z"
       id="path32"
       inkscape:connector-curvature="0"
       style="fill:none" /><path
       class="st0"
       d="m 76.5,63.9 c 0,0 0.1,0.1 0,0 0.1,0 0.1,0 0,0 z"
       id="path34"
       inkscape:connector-curvature="0"
       style="fill:none" /><path
       class="st0"
       d="m 29.5,67.6 c -0.1,0 -0.2,0 0,0 l 0,0 z"
       id="path36"
       inkscape:connector-curvature="0"
       style="fill:none" /><path
       class="st0"
       d="m 54.8,32.6 c 0,0 0,0 0,0 0,-0.1 0,-0.1 0,0 0,-0.1 0,0 0,0 z"
       id="path38"
       inkscape:connector-curvature="0"
       style="fill:none" /><path
       class="st0"
       d="m 77.3,59.2 -0.1,0.1 c 0,-0.1 0.1,-0.1 0.1,-0.1 z"
       id="path40"
       inkscape:connector-curvature="0"
       style="fill:none" /><path
       class="st0"
       d="m 91.2,49.6 0.3,-0.1 0.1,-0.1 C 91.9,49.3 91.8,49 92.2,49 92,48.9 91.5,48.6 91.3,48.4 c -0.6,-0.3 -1,-0.6 -1.7,-0.9 1,0.7 -1.7,-1.1 -1.6,-1 -0.8,-0.5 -2.4,-0.7 -1.5,-1.1 -1.5,-1.4 -3.2,-1.8 -5.2,-3 -1.1,-0.7 -2.8,-1.3 -3.7,-2.2 -1.1,0.4 -2.4,0.8 -2.9,1.1 -0.8,0.3 -1.5,0.3 -2.2,1 -0.2,0 -2.2,1 -3,1.4 -0.1,0 -0.2,0.1 -0.3,0.1 0,0 0,0.1 0.1,0.1 l -0.1,0 c 0,0 0,-0.1 0,-0.1 -0.6,0.2 -1.8,0.6 -1.6,0.6 -0.3,-0.1 -1.6,0.7 -1.8,0.8 -0.4,0.9 -1,0.9 -1.6,0.9 -0.2,0.1 -0.4,0.2 -0.5,0.3 0.1,-0.1 -0.5,0.2 -0.3,0.3 0.1,-0.1 0.2,-0.1 0.2,-0.1 -0.1,0 -0.1,0.1 -0.1,0.1 0,0 0,0 0,0 -0.4,0.3 -1.6,1 -1.5,1 0.1,-0.1 0.1,-0.2 0.2,-0.2 -1.8,0.3 -2.7,1.6 -4.3,2.3 -0.1,-0.5 -0.3,0.2 -0.5,-0.1 0.1,-0.1 0.6,-0.2 0.7,-0.3 0,0 -0.8,0.3 -1.5,0.6 1.7,1.5 3.4,3.1 5.2,4.6 0.1,0.1 0.3,0.3 0.3,0.3 -0.1,-0.1 -0.2,-0.2 -0.3,-0.3 -0.1,-0.1 -0.1,-0.1 -0.2,0 -0.1,0.5 2.8,2.4 3,2.5 1.6,1.3 3.2,2.7 4.7,4.1 l 0.2,0.2 0,0.1 c 0.2,-0.1 1.1,-0.4 1.2,-0.4 0.1,0.1 6.9,-3.8 7.5,-4.2 3.7,-2.1 7.5,-4.3 11.2,-6.4 0.1,-0.1 1.3,-0.7 1.8,-0.9 z M 62.8,47.3 c 0,0 0.2,-0.1 0,0 l 0,0 z"
       id="path42"
       inkscape:connector-curvature="0"
       style="fill:none" /><path
       d="m 35,38.4 c 0,0 0,0 0,0 -0.1,0 -0.1,0 0,0 z"
       id="path44"
       inkscape:connector-curvature="0" /><path
       d="m 45.4,36.9 c 0,0 0,0 0,0 0,0 0,0 0,0 z"
       id="path46"
       inkscape:connector-curvature="0" /><path
       d="m 44.6,37.1 c 0.3,-0.1 0.7,-0.2 0.8,-0.2 -0.2,-0.1 -0.5,0 -0.8,0.2 z"
       id="path48"
       inkscape:connector-curvature="0" /><path
       d="m 63.5,46.6 c 0,0 -0.1,0.1 -0.2,0.1 0,0 0,0 0,0 0.1,0 0.1,-0.1 0.2,-0.1 z"
       id="path50"
       inkscape:connector-curvature="0" /><path
       d="m 47.6,36.5 c -0.1,0 -0.2,0.1 -0.2,0.1 0.1,0 0.2,0 0.2,-0.1 z"
       id="path52"
       inkscape:connector-curvature="0" /><path
       d="m 47.8,36.7 c 0.1,-0.2 0,0 0,0 l 0,0 z"
       id="path54"
       inkscape:connector-curvature="0" /><path
       d="m 46,36.9 0.6,-0.3 C 46.4,36.7 46,36.8 46,36.9 Z"
       id="path56"
       inkscape:connector-curvature="0" /><path
       class="st1"
       d="m 44.3,36.8 c 0,-0.1 0.1,-0.1 0.1,-0.1"
       id="path58"
       inkscape:connector-curvature="0"
       style="fill:none;stroke:#000000;stroke-width:0;stroke-linecap:round;stroke-linejoin:round" /><path
       d="m 44.2,37.1 c 0,-0.3 -0.9,0.1 0,0 l 0,0 z"
       id="path60"
       inkscape:connector-curvature="0" /><path
       d="m 40.5,37.4 c 0,-0.1 -1,0.3 0,0 l 0,0 z"
       id="path62"
       inkscape:connector-curvature="0" /><path
       class="st1"
       d="m 38.8,37.9 c 0,0 0,0 0,0"
       id="path64"
       inkscape:connector-curvature="0"
       style="fill:none;stroke:#000000;stroke-width:0;stroke-linecap:round;stroke-linejoin:round" /><path
       d="m 38.9,37.9 c -0.2,-0.1 -0.2,0 0,0 l 0,0 z"
       id="path66"
       inkscape:connector-curvature="0" /><path
       d="m 49.4,48.5 0.2,0 c 0,-0.1 -0.1,-0.1 -0.2,0 z"
       id="path68"
       inkscape:connector-curvature="0" /><path
       d="m 62.8,47.3 c 0.2,-0.1 0,0 0,0 l 0,0 z"
       id="path70"
       inkscape:connector-curvature="0" /><path
       d="m 26.5,40.5 c -0.1,0.1 -0.2,0.1 -0.3,0.2 0.2,-0.1 0.2,-0.2 0.3,-0.2 z"
       id="path72"
       inkscape:connector-curvature="0" /><path
       d="m 44.9,64.9 c -0.2,0.3 -0.3,0.5 -0.3,0.5 0.2,-0.2 0.2,-0.4 0.3,-0.5 z"
       id="path74"
       inkscape:connector-curvature="0" /><path
       d="m 45.2,64.4 c 0,0 -0.1,0.1 -0.1,0.1 0,0.1 -0.1,0.2 -0.1,0.3 0.1,-0.2 0.2,-0.4 0.2,-0.4 z"
       id="path76"
       inkscape:connector-curvature="0" /><path
       d="M 61.4,57.1 C 61.3,57 61.3,57 61.2,56.9 c 0,0.1 0.1,0.2 0.2,0.2 z"
       id="path78"
       inkscape:connector-curvature="0" /><path
       d="M 95.8,49.1 C 95.2,48.7 94.5,48.5 94,48 c 0,0.1 0,0.2 0,0.3 -0.3,-0.2 -1.9,-1.3 -2.5,-1.6 0.1,0 0.3,0.1 0.4,0.2 -1,-1.1 -2.4,-1.2 -3.4,-1.8 -0.4,-0.2 -2.5,-1.6 -1.6,-1.3 -2,-1.4 -5.4,-3 -6.9,-3.9 -0.2,0.1 -0.8,-0.7 -1,-1 0,0 0.1,0 0.1,0 0,0 -0.1,0 -0.1,0 0,0 0,-0.1 0,-0.1 0.1,-0.4 0.7,-1.4 0.4,-0.9 0.3,-0.4 0.4,-0.9 0.5,-1.4 0.1,-0.2 0.5,-0.8 0.6,-1 0.8,-1.9 1.5,-4.1 2,-6.2 0.2,-0.6 0.7,-2.1 0.7,-1.8 0.8,-1.3 0.9,-2.9 1.6,-4.2 0,0.2 -0.1,0.4 -0.1,0.6 0.3,-1.1 0.7,-2.2 0.9,-3.4 0.1,0.1 0.1,0.3 0,0.4 0.2,-0.7 0.8,-1.7 0.7,-2.4 -0.2,0.3 -0.2,0.4 -0.1,0.3 0,0.2 -0.1,0.3 -0.2,0.4 0,0 -0.2,-0.7 -0.2,-0.9 -0.4,0 -1.2,-0.2 -1.8,-0.2 0,0 0.1,0 0.1,-0.1 -0.5,-0.7 -4.1,-0.5 -5,-0.3 0,-0.1 -0.5,-0.3 0,-0.3 -1.7,-0.1 -3.3,0.1 -5,0 0.2,-0.1 0.3,-0.1 0.5,0 -0.2,-0.1 -0.4,-0.1 -0.6,-0.2 1.2,0.1 -0.2,-0.2 0.4,-0.3 -1.8,0 -3.3,-0.2 -4.9,-0.4 0,0 0,-0.1 0,-0.1 l -0.1,0 c 0,0.1 0,0.1 0,0.1 -0.2,0 -0.5,-0.1 -0.7,-0.1 C 67.5,16.3 66,16 64.9,15.9 63.3,15.7 62.3,15.3 62.1,17.3 62,17.2 62,17.2 62,17 c -0.3,0.7 -0.4,1.2 -0.4,1.2 -0.6,2.8 -1.4,3.7 -2.3,6.3 -1.3,3.6 -2.7,7.3 -3.9,11 -0.1,-0.4 -0.5,-2.3 -0.8,-3.1 0,0 0,-0.1 0,-0.1 0,0 0,0.1 0,0.1 0,-0.1 -0.1,-0.2 -0.1,-0.3 C 54.3,31.6 54.2,30.9 54.1,30.6 54,30.2 53.8,29.5 53.7,29.2 53.4,28.6 53.3,27.7 53.2,27 53,26.7 52.7,25.5 52.7,25.4 52.5,24.6 51.4,21.1 51.3,21.1 51,20.2 50.7,18.3 50.2,17.5 c -1,-1.4 0,-0.8 -1.7,-0.9 -0.4,0 -3.5,0.9 -3.5,0.8 -1.7,0.6 -3.8,0.4 -5.4,1.5 -0.5,0 -2.5,0.3 -2.5,0.3 -0.3,0 -2.7,0.6 -2.3,0.6 -3.9,0.5 -7.9,1.1 -11.6,2.2 1.4,4 2,8.5 3.8,12.4 0.4,1.1 0.8,2.1 1.6,3 -1.5,-4.7 -2.8,-9.5 -4,-14.3 l 0,-0.1 c -0.1,-1 20.8,-4.3 23,-4.7 L 48.7,18.1 49,19 c 0.3,1.1 0.6,1.9 1,2.7 l 0.3,0.6 c 0.1,0.5 0,0.5 -0.2,-0.1 0.9,3 2,8.9 3.3,10.9 0.3,1 0.6,1.9 0.9,2.9 -0.1,0 -0.3,0 -0.5,0 l 0,-0.1 c -0.6,0.2 -1.1,0 -1,0.4 -0.6,0.1 -1,0.3 -0.9,-0.2 -0.1,0.3 -0.8,0.3 -0.8,0.3 -0.4,0 -1.1,0 -1.7,0.1 0.2,0 -2.3,0.2 -2,0 -0.2,0 -0.3,-0.2 -0.4,-0.2 0,0.2 0.1,0.3 0.3,0.3 -0.6,0 -2.9,1.2 -2.8,1.2 -0.1,-0.3 -0.2,-0.4 -0.5,-0.4 0,-0.1 0.3,-0.3 0.6,-0.4 -0.5,0.1 -1.1,0.2 -0.8,0 -0.2,0 -0.4,0.1 -0.5,0.1 0.1,-0.2 0.2,-0.6 0.2,-0.5 -0.3,0 -0.4,0.4 -0.5,0.2 L 42.6,37 c 0,0.3 0.2,0.3 0.2,0.3 0,0 -0.2,0 -0.5,0.1 -0.1,0.1 0.1,0.5 -0.6,0.1 0.1,-0.1 0.2,-0.1 0.3,0 0.1,-0.2 0.1,-0.3 0,-0.5 -0.2,0 -0.4,0.1 -0.6,0.3 0.1,0 0.2,0 0.2,0.1 -0.2,0 -1.2,0.5 -1.5,0.7 0,-0.1 -0.2,-0.1 -0.3,-0.2 L 40,37.6 c -1,-0.4 -1.5,0.5 -1.6,-0.1 -0.1,0.1 -1.1,0.9 -0.6,0.3 -0.3,0.1 -0.4,-0.4 -0.6,0 0,0 -0.4,-0.1 -0.5,0 -0.1,0.2 -0.3,0.3 -0.5,0.2 0.2,0.1 0.3,0.1 0.5,0 0.1,0.1 -1.4,0.4 -1.3,0.4 0.1,0.1 -0.5,0 -0.7,-0.1 0.1,0.2 -0.4,0.4 -0.3,0.5 -0.7,0 0.1,-0.3 -0.2,-0.5 -0.3,0.1 -0.7,0.2 -1,0.3 0.4,0 -0.3,0.2 -0.5,0.2 -0.3,0.2 -0.3,0.2 0.1,0.3 -0.5,0 -1.3,-0.1 -0.8,0 -1,0.2 0.2,0.4 -0.4,0.5 0.3,0 0.5,0.1 0.6,0.4 -0.2,0 -0.5,-0.1 -0.7,-0.1 -0.7,-0.1 -0.3,-0.5 -1,-0.4 -0.2,-0.1 -1.3,-0.1 -1.3,0 0.1,0 0.3,0 0.4,0 -0.7,0.2 -1.3,0.2 -1.9,0.2 -0.9,0.1 -1.7,0.3 -2.6,0.5 0.3,0.1 0.6,0.2 0.8,0.3 -0.4,0.2 -0.1,0 0,0 0,0 0,0 0,0 0,0 0,0 0,0 0,0 0,0 0,0 2.3,0.8 4.3,1.6 6.2,2 0.9,0.2 1.4,0.8 2.5,1 0,0 4.1,1 4.9,1.7 0.6,0.1 0.8,0.2 0.6,0.2 0.5,0.2 0.9,0.4 1.2,0.2 l 0.3,0.2 c -0.3,0.1 0,0.1 0.2,0.1 0,0 0,0 0,0.1 0.2,0.1 1,0.4 1.3,0.4 -0.8,-0.5 0,-0.1 -0.1,-0.2 0.3,0 0.4,0 0.5,0.2 0.2,0 0.4,0 0.6,0.1 -0.2,0.6 0.1,0.3 0.5,0.4 0.6,0.2 0.9,0.3 1.2,0.4 0,0.5 3,1 3.1,1 0,0 1.5,0.4 0.7,0.4 0.1,0.1 2.5,0.8 2.1,0.8 0.6,0.4 1.9,0.7 2.6,0.9 -0.7,1 -1.7,2.4 -1.8,2.1 -1.9,2.6 -4.3,6.4 -6.8,8.3 -1.2,1.7 -1.8,3.1 -3.6,3 -1.5,-0.1 -3.4,-1.4 -4.9,-2 -2.8,-1.3 -5.9,-2.3 -8.5,-3.7 -2,-0.6 -4.2,-1.9 -6,-2.2 0.2,0 0.4,0 0.6,0 -3.8,-1.7 -7.7,-3.3 -11.6,-5 L 11.4,50.8 11.3,50.7 11.2,50.6 C 10.6,50.4 10,50.1 9.3,49.9 c 0.4,-0.3 0.1,-0.1 0.5,-0.2 1.8,-0.9 3.8,-2 5.3,-2.9 0.9,-0.6 1.3,-1.3 2.4,-1.7 -0.5,0.3 -0.9,0.7 -1.3,1.1 1.8,-0.9 4.2,-2.1 5.4,-3.2 -0.2,0.1 -0.3,0.2 -0.5,0.3 0.3,-0.2 0.5,-0.4 0.6,-0.7 -0.2,0.2 -0.4,0.3 -0.7,0.4 0.1,-0.3 1.1,-0.8 1.4,-0.8 0.2,0 -0.4,0.5 -0.1,0.4 0.5,-0.4 1.1,-0.8 1.5,-1.2 -0.4,0.4 -1,0.5 -1.4,0.8 l 0,-0.1 c -0.5,0.3 -3.5,1.6 -2.5,1.5 -0.6,0.4 -1.2,0.8 -1.9,1.1 0.2,-0.1 -0.3,0.2 -0.3,-0.3 -0.2,0.6 -1.8,1.2 -1.9,1.2 -2.1,0.9 -5.7,2.7 -8.1,4.4 0.2,0.1 0.4,0.1 0.6,0.3 0.1,0.3 -1.7,-0.4 0.4,0.3 -0.5,0 -0.8,0.2 -1.6,-0.1 0.5,0.1 2.1,0.8 2,1 0.2,0.2 0.3,0.2 0.6,0.2 C 9.4,51.3 9,51 8.5,50.9 c 0,0 2,0.7 1.5,0.4 1.3,0.6 2.7,1.3 4.1,1.8 -0.4,-0.2 -0.5,-0.1 -0.3,0.2 0.9,0.2 1.9,0.6 2.7,1 0.3,-0.9 0.6,0.3 1.5,0.7 -0.5,0.2 -3.9,-1 -4.1,-1.3 0.4,0.7 2.4,1 3.1,1.3 -0.1,0 0.1,0 0.3,0.1 0.2,0.2 0.4,0.3 0.6,0.4 -0.2,-0.1 -0.4,-0.2 -0.6,-0.4 0.7,0.2 2.1,0.8 0.9,0.4 0.6,0.3 1.1,0.5 1.7,0.7 0,0.1 -1.5,-0.4 -1.5,-0.4 0.1,0.1 0.3,0.3 0.4,0.4 0.5,0.2 1.4,0.5 1.4,0.5 L 21,57 c 0,-0.3 -0.3,-0.5 -0.7,-0.6 0.3,-0.1 1,0.2 1.4,0.4 -0.1,0 -0.1,-0.1 -0.2,-0.1 -0.1,-0.3 1.7,0.8 1.8,0.9 -0.1,0 -1,-0.5 -1.1,-0.4 -0.1,0.1 0.6,0.5 0,0.4 0.4,0.2 0.7,0.2 1.1,0.3 -0.8,-0.3 0.5,0.1 0.2,-0.2 -0.1,0 3.5,1.4 3.2,0.9 0.4,0.2 1.6,0.7 0.8,0.6 0.2,0.1 0.3,0.1 0.5,0.2 l -0.8,-0.1 c 1,0.8 1.8,1.1 2.7,1.5 -0.9,-0.5 1.9,0.6 1.6,0.6 -0.2,0 -0.5,-0.1 -0.7,-0.1 0.8,0.1 1.6,0.5 2.4,0.7 -0.2,-0.1 -0.5,-0.1 -0.7,-0.2 0.6,0.2 0.7,0.6 1.4,0.7 0.2,0.1 0.6,0.4 1,0.6 0.5,0 1,0.2 1.4,0.5 C 36,63.1 35,62.4 35,62.4 c 1,0.2 2.3,1 3.2,1.4 0.4,0.3 0.9,0.6 1.5,0.7 -0.3,0 -0.3,0.1 0,0.3 -0.4,-0.4 1.4,-0.1 1.2,0.1 -0.2,0 -0.4,0 -0.5,0.2 0.5,0.2 0.9,0.4 1.4,0.5 -0.7,-0.4 0.8,0.1 0.9,0.1 0,0 -0.1,0.1 -0.2,0 0,0.1 1.1,0.6 1.2,0.4 0,-0.2 -0.2,-0.3 -0.4,-0.3 0.8,0.4 1,-0.8 1.6,-1.4 0.3,-0.9 0.6,-2.1 1,-2.2 -0.1,0 -0.3,0.7 -0.2,0.6 0.1,-0.1 0.2,-0.3 0.3,-0.4 0.4,-0.3 -0.2,1 -0.2,1.1 0,0.2 0.5,-0.6 0.5,-0.5 -0.1,0.7 1,-0.7 1.1,-1 -0.1,0.1 -0.2,0.1 -0.3,0.2 0.3,-0.6 0.6,-1.1 1,-1.6 -0.3,0.6 0.9,-0.5 0.7,-0.4 1.4,-1.7 5.4,-8.6 7.1,-8.1 l 0.1,0.1 c 0.4,0.3 0.9,0.9 1.2,1.2 l 0.2,0 c 1.4,1 2.2,2.2 3.6,3.4 -0.1,-0.1 -0.1,-0.2 -0.1,-0.4 0.5,-0.1 4.9,4.7 6.2,5.9 2.2,1.9 1.7,1.2 3.3,0.3 0.8,-0.4 1.8,-0.4 2.4,-1 0.3,-0.3 1.2,-0.8 1.4,-0.8 0.5,-0.3 1.1,-0.6 1.7,-0.9 0,0.1 0.4,0.2 0.4,0.2 -0.2,0 -0.4,-0.1 -0.6,0 0,0 0.4,0.1 0.1,0.1 l 0.1,0 c 0.2,0 0.5,0 0.7,0.1 0,0.1 -0.8,-0.1 -0.7,0 0.1,0 0.4,0.1 0.5,0.1 -0.1,0 -0.3,0 -0.4,0.1 1.4,0 0.6,0 0.5,0.1 l -0.2,0 c -0.3,0 -0.3,0.1 -0.3,0.1 0.4,-0.1 0.3,0.1 -0.1,0 0,0 0.7,0.2 0.2,0.1 0,0 -0.5,0 -0.1,0.1 -0.2,0.1 -0.1,0 -0.1,0 0.2,0.1 0.2,0 0.4,0.1 -0.1,0 -0.1,0.1 -0.1,0.1 -0.2,0 -0.6,0.1 0.2,0.1 -0.6,0.3 -0.2,0.2 -0.1,0.2 0.3,0.1 1.3,0.3 0.5,0.1 -0.7,-0.1 -0.9,-0.1 -0.6,0 -0.8,-0.1 0.1,0.1 0.1,0.1 -0.3,-0.1 -0.3,0 -0.3,0 0,0.2 0.1,0.3 0.4,0.4 -0.9,0.1 0.4,0.2 -0.3,0.1 0,0 0.2,0.2 0,0.2 l 0.1,0 c -0.2,-0.1 -0.1,0.2 0.3,0.2 -0.2,-0.1 -0.3,0 -0.4,0.1 0,0.1 0.4,0.4 0.4,0.4 -0.3,-0.1 -0.3,0.1 -0.3,0.1 0.1,0.1 0.1,0.1 0.1,0.1 -0.1,0.1 0.1,0.1 0.2,0.1 l -0.1,0 c -0.3,-0.1 0.3,0.1 -0.2,0 -0.1,0.1 0.3,0.1 0.3,0.1 0.2,0 0.2,0.1 -0.1,0.1 0.1,0 -0.1,0.1 -0.1,0.1 0.1,0.1 0.2,0 -0.1,0.2 0.1,0 0.1,0 0.2,0 0,0.1 -0.2,0.2 -0.3,0.2 0.1,0 0.3,0.1 0.3,0.1 -0.1,0 -0.3,0.1 0.1,0.2 -0.6,0.1 0,0.2 -0.4,0.3 0.3,0 0.3,0.3 0.2,0.1 -0.3,0 -0.1,0.1 0,0.1 0.1,0.1 0,0.2 -0.3,0.2 0,0 0.5,0.5 0.3,0.6 0,0 -0.1,0 -0.1,0 0.4,0.3 0.1,0.2 0.5,0.3 0,0.2 -0.5,0.2 0.2,0.3 0,0 0.1,0.1 0,0.2 0.1,0.1 0.1,0.4 0.1,0.4 0,0 0,0 0,0 0,0 0,0 -0.2,0 l 0,0 c 0.1,0 0.2,0 0.2,0 0,0.1 0,0.4 0,0.4 0.2,0.1 -0.5,0.5 0,1 -0.1,0 -0.2,0 -0.2,0 0,0 0,0 0,0.1 0,0.1 0,0.1 0,0.1 -0.1,0 0.1,0.1 -0.2,0.1 0,0 0.2,0.1 0.1,0.1 0,0 0.3,0.6 0.6,0.9 -0.2,0.1 -0.2,0.2 -0.1,0.2 -0.2,0.1 -0.6,0.9 -0.1,1.1 1,0.9 1.1,-1.8 1.1,-2 l 0,0 c 0.1,-0.1 0.2,-0.5 -0.1,-0.5 0.8,-0.1 0.1,-2.5 -0.2,-2.6 -0.2,-0.1 0.1,-0.2 0.4,-0.4 0,0 -0.2,-0.5 -0.3,-0.5 0.2,0 0.3,-0.6 0.3,-0.7 -0.1,-0.9 0,-1.3 -0.1,-1.5 C 78,62.3 78,62.1 78.2,62.1 78,62 78,61.7 78.2,61.6 77.8,61.2 78.3,61 77.7,60.9 c 0.1,0.1 0.4,-0.2 0.3,-0.2 -0.2,-0.1 -0.7,-0.3 -0.2,-0.3 0,-0.1 -0.1,-0.7 -0.1,-0.8 0,-0.1 0,-0.2 0,-0.3 -0.1,0 -0.2,-0.1 -0.3,-0.1 0.1,0 0.2,0 0.3,0.1 0,0 0,-0.1 -0.1,-0.1 0.3,-0.2 0.5,-0.4 0.8,-0.6 0,0 0,0.1 0,0.1 0.9,-0.3 2.4,-1.2 3.1,-1.8 -0.3,0.2 -0.7,0.3 -1,0.4 0.1,-0.1 1.3,-0.6 0.7,-0.3 0,0 0.9,-0.5 0.5,-0.5 0.2,0 0.5,-0.1 0.7,-0.1 0.5,-0.8 1.7,-0.8 2.6,-1.4 1.1,-0.6 2.1,-1.2 2.9,-1.7 1.7,0.3 6.3,-3.4 7.9,-4.2 z M 76.5,63.9 c 0.1,0 0.1,0 0,0 0.1,0.1 0,0 0,0 z M 80,36.6 c 0.2,-0.7 0.3,-1.4 0.6,-2 -0.4,0.6 -0.3,1.4 -0.6,2 z M 63.1,19 c 0,-1.5 0.7,-1.9 2.1,-1.3 1,0.1 2.1,0.2 3.1,0.3 2.1,0.2 4.2,0.4 6.3,0.6 3.1,0.3 6.2,0.6 9.3,0.9 l 0.1,0 0.2,0 -0.1,0.3 0,0.1 -0.1,0.5 -0.3,0.7 c -0.8,2.3 -1.6,5.4 -2.3,7.3 -0.6,2.3 -1.8,4.6 -2.7,6.6 -0.4,1 -1.4,2.6 -1.6,3.8 -0.5,0 -1.2,-0.3 -1.4,-0.3 C 74.8,38.1 73.3,38.3 72.5,38.2 71.1,38.1 69.2,37.6 67.9,38.1 67.4,37.8 66.4,37.7 66.1,37.7 64,37 59.4,35.9 57,36.4 c 0.8,-2.2 1.4,-4.5 2.2,-6.6 1.2,-3.1 1.9,-8.1 3.9,-10.8 z m -6.6,28 0,0 c 0.1,-0.1 0.1,-0.5 -0.2,-0.5 0.8,-0.1 0,-2.5 -0.3,-2.7 -0.2,-0.1 0.1,-0.2 0.4,-0.4 0,-0.1 -0.3,-0.6 -0.3,-0.5 0.2,0 0.3,-0.6 0.3,-0.7 -0.1,-0.9 0,-1.3 -0.1,-1.6 -0.2,-0.3 -0.2,-0.5 0,-0.5 -0.2,-0.1 -0.2,-0.5 0,-0.5 C 56,39.4 56.2,39.2 56,39 c 0.3,-0.6 0.6,-1.2 0.8,-1.9 5.6,0.6 11.7,3.2 16.8,2.7 l 0.3,-0.1 c 0.2,0 -0.2,0.2 0.1,0.2 l 0.1,0 c 0.3,0 0.6,0 0.9,-0.1 -0.4,0.1 -0.4,0.1 0.1,0 -0.4,0 -0.9,0.2 -1.3,0.3 -4.7,2.1 -10.4,4.2 -14.4,7.1 -0.9,0.8 -2.1,0.7 -3.1,1 0.1,-0.5 0.3,-1.1 0.2,-1.2 z M 55.7,36.8 c 0,0 0,0 0,0 0,0 0,0 0,0 z m 0,0.1 c -0.2,0 -0.3,0 -0.3,0 0,0 0.1,0 0.3,0 z m -8,9 C 45.1,45 42.4,44 40,43.2 c -1,-0.3 -4.5,-1.4 -4.6,-1.6 -0.1,0 -0.2,-0.1 -0.3,-0.1 l 0,-0.1 C 35,41.4 34.3,41 33.8,41 c 0.1,0 0.1,0 0.2,0 -0.2,0 -0.5,-0.1 -0.7,-0.1 0.5,-0.1 0.3,-0.1 0.8,-0.1 0.3,-0.9 5.3,-1.1 5.9,-1.2 0.8,-0.4 2.1,-0.9 2.2,-0.6 2,-0.3 4.5,-0.8 6.2,-1.2 0.8,-0.1 2,-0.3 2.5,-0.4 0.6,-0.3 1.3,-1.2 0.5,0 0.5,0 2.1,-0.4 2.3,-0.6 0,0 0.1,-0.2 -0.2,-0.2 0.2,-0.7 0.7,0.2 0.6,0.2 0.2,-0.1 0.4,-0.3 0.6,-0.4 0.1,0.5 0.3,1 0.4,1.5 -0.3,-0.1 -1,-0.3 -0.5,0 0.1,0 0,0 0,0.1 0.2,0 0.5,0 0.5,0 0,0.2 -0.1,0.3 -0.3,0.2 0,0 0.2,0.1 0.4,0.2 -0.3,0 -0.5,-0.1 -0.8,-0.1 0,0.1 0.4,0.2 0.4,0.2 -0.2,0 -0.4,-0.1 -0.6,0 0,0 0.4,0.1 0.1,0.1 l 0.1,0 c 0.2,0 0.6,-0.1 0.7,0.1 0,0.1 -0.8,0 -0.7,0 0.1,0 0.4,0.1 0.5,0.1 -0.1,0 -0.3,0 -0.4,0.1 1.5,-0.1 0.6,0 0.5,0.1 l -0.2,0 c -0.3,0.1 -0.3,0.1 -0.3,0.1 0.4,-0.2 0.3,0.1 -0.1,0 0,0 0.7,0.1 0.2,0.1 0,0 -0.5,0 -0.1,0.1 C 54,39 54.1,38.9 54,39 c 0.2,0.1 0.1,0 0.4,0.1 -0.1,0 -0.1,0.1 -0.1,0.1 -0.2,0 -0.6,0.1 0.2,0.1 -0.6,0.3 -0.2,0.2 -0.1,0.2 0.3,0 1.3,0.3 0.5,0.1 -0.7,-0.1 -0.9,-0.1 -0.6,0 -0.8,-0.1 0.1,0.1 0.1,0.1 -0.3,-0.1 -0.3,0 -0.3,0 0,0.2 0.1,0.3 0.4,0.4 -0.9,0.1 0.4,0.2 -0.3,0.1 0,0 0.2,0.2 0.1,0.2 l 0.1,0 c -0.1,-0.1 -0.1,0.2 0.3,0.2 -0.9,0 0.1,0.6 0.1,0.5 -0.3,-0.1 -0.3,0.1 -0.3,0.1 0.1,0.1 0.1,0.1 0.1,0.1 -0.1,0.1 0.1,0.1 0.2,0.1 l -0.1,0 c -0.3,0 0.3,0.1 -0.2,0 -0.1,0.1 0.3,0.1 0.3,0.1 0.2,0 0.2,0.1 -0.1,0.1 0.1,0 -0.1,0.2 -0.1,0.1 0.1,0.1 0.2,0 -0.1,0.2 0.1,0 0.1,0 0.2,0 0,0.1 -0.2,0.2 -0.3,0.2 0.1,0 0.3,0.1 0.3,0.1 -0.1,0 -0.3,0.1 0.1,0.2 -0.6,0.1 0,0.2 -0.4,0.3 0.3,0 0.3,0.3 0.2,0.1 -0.3,0 -0.1,0.1 0,0.1 0.1,0.1 0,0.2 -0.3,0.2 0,0 0.5,0.5 0.3,0.6 0,0 -0.1,0 -0.1,0 0.4,0.3 0.1,0.1 0.5,0.3 0,0.2 -0.5,0.2 0.2,0.3 0,0 0,0.1 -0.1,0.2 0,0.1 -0.1,0.4 -0.1,0.5 0,0 0,0 0,0 0,0 0,0 -0.1,0 l 0.1,0 c 0.1,0 0.2,0 0.2,0 0,0.1 0,0.4 0,0.5 0.2,0.1 -0.5,0.5 0.1,1 -0.1,0 -0.2,0 -0.2,0 0,0 0,0 0,0.1 0,0.1 0,0.1 0,0.1 -0.1,0 0.1,0.1 -0.2,0.1 0,0 0.2,0.1 0.1,0.1 0,0 0.4,0.7 0.6,0.9 -0.2,0.1 -0.2,0.2 -0.1,0.2 -0.1,0.1 -0.3,0.5 -0.3,0.9 0,0 0,0 -0.1,0 -2.9,-0.8 -4.4,-2 -7.4,-3 z m 7,-3.8 c 0,0 -0.1,0 0,0 0,-0.1 0,0 0,0 z M 76.2,60 c 0.1,0 0.2,-0.1 0.2,-0.1 0,0 0.1,0.1 0.2,0.1 l -0.2,-0.1 c 0,0 0.1,0 0.1,-0.1 0.2,0 0.3,0 0.4,0 0,0.2 -0.1,0.3 -0.3,0.2 0,0 0.2,0.1 0.4,0.2 C 76.6,60.1 76.5,60 76.2,60 Z m 1.6,-1.1 c -0.2,0 -0.3,0 -0.3,0 0,0 0,0 0.3,0 z m -0.1,-0.1 c 0,0 0,0 0,0 0,0 0,0 0,0 z m -0.4,0.4 c 0,0 -0.1,0.1 -0.1,0.1 l 0.1,-0.1 z m -0.2,0 c 0,0.1 0,0.1 0,0 -0.1,0.1 -0.1,0.1 0,0 0,0.1 -0.1,0.1 0,0 -0.1,0.1 0,0.1 0,0 z m -0.3,0.3 c 0,0.1 0.1,0.1 0.2,0.2 0,0.1 -0.2,0 -0.4,-0.1 0.1,0 0.2,-0.1 0.2,-0.1 z m 0.9,-0.4 c 0,0 -0.1,-0.1 -0.2,-0.1 l 0.4,-0.2 C 77.8,59 77.8,59 77.7,59.1 Z M 78,57 c -0.7,0.4 -7.4,4.3 -7.5,4.2 -0.1,-0.1 -1,0.3 -1.2,0.4 l 0,-0.1 -0.3,-0.3 c -1.5,-1.4 -3.1,-2.8 -4.7,-4.1 -0.2,-0.1 -3.1,-2 -3,-2.5 0,-0.1 0.1,0 0.2,0 -1.8,-1.5 -3.5,-3.1 -5.2,-4.6 0.7,-0.3 1.5,-0.6 1.5,-0.6 -0.1,0.1 -0.6,0.2 -0.7,0.3 0.2,0.3 0.4,-0.4 0.5,0.1 1.6,-0.7 2.5,-2 4.3,-2.3 -0.1,0.1 -0.1,0.2 -0.2,0.2 -0.1,0 1.1,-0.7 1.5,-1 -0.2,-0.1 0.4,-0.4 0.3,-0.3 0.2,-0.1 0.4,-0.2 0.5,-0.3 0.5,0 1.2,0 1.6,-0.9 0.1,-0.1 1.4,-0.9 1.8,-0.8 -0.2,0.1 1,-0.3 1.6,-0.6 0,0 0,0.1 0,0.1 l 0.1,0 c 0,0 0,-0.1 -0.1,-0.1 0.1,0 0.2,-0.1 0.3,-0.1 0.8,-0.4 2.7,-1.4 3,-1.4 0.7,-0.7 1.4,-0.7 2.2,-1 0.5,-0.2 1.9,-0.6 2.9,-1.1 0.8,0.9 2.5,1.5 3.7,2.2 2,1.2 3.6,1.6 5.2,3 -0.9,0.3 0.7,0.6 1.5,1.1 0,0 2.6,1.7 1.6,1 0.6,0.3 1.1,0.6 1.7,0.9 0.2,0.2 0.7,0.5 0.9,0.6 -0.4,0 -0.4,0.2 -0.6,0.4 l -0.1,0.1 -0.3,0.1 c -0.5,0.2 -1.6,0.9 -2,1 -3.5,2.1 -7.3,4.2 -11,6.4 z"
       id="path80"
       inkscape:connector-curvature="0" /><path
       d="m 23.3,57.5 c 0.1,0 0.3,0.1 0.5,0.2 -0.2,-0.1 -0.4,-0.1 -0.5,-0.2 z"
       id="path82"
       inkscape:connector-curvature="0" /><path
       d="m 80.5,35.6 c 0,0 0,0 0,0 0.1,-0.1 0.1,-0.1 0,0 z"
       id="path84"
       inkscape:connector-curvature="0" /><path
       d="m 21.7,56.5 c 0.1,0.1 0.2,0.1 0.3,0.1 -0.1,0 -0.2,-0.1 -0.3,-0.1 z"
       id="path86"
       inkscape:connector-curvature="0" /><path
       d="m 61.5,54.6 c 0.1,0.1 0.2,0.2 0.3,0.3 0,0 -0.2,-0.2 -0.3,-0.3 z"
       id="path88"
       inkscape:connector-curvature="0" /><path
       d="m 85.8,18.4 c 0,0 0,0 0,0 0,0 0,0 0,0 z"
       id="path90"
       inkscape:connector-curvature="0" /><path
       d="m 54.8,32.7 c 0,0 0,-0.1 -0.1,-0.1 0.1,0 0.1,0 0.1,0.1 0,-0.1 0,0 0,0 z"
       id="path92"
       inkscape:connector-curvature="0" /><path
       d="m 24.5,41.4 c 0.2,0 0.4,-0.1 0.6,-0.1 0,-0.2 -0.8,0.1 -0.6,0.1 z"
       id="path94"
       inkscape:connector-curvature="0" /><path
       d="m 16.9,54.8 c -0.8,0 0.6,0.4 0,0 l 0,0 z"
       id="path96"
       inkscape:connector-curvature="0" /><path
       d="m 26.1,58.9 c 0.2,0.1 0.8,0.4 0.8,0.4 -0.2,-0.2 -0.5,-0.4 -0.8,-0.4 z"
       id="path98"
       inkscape:connector-curvature="0" /><path
       d="m 26.1,58.9 c 0,-0.1 0,-0.1 0,0 0,-0.1 0,0 0,0 z"
       id="path100"
       inkscape:connector-curvature="0" /><path
       d="m 30.3,60.5 c 0.2,0.2 0.6,0.3 0,0 l 0,0 z"
       id="path102"
       inkscape:connector-curvature="0" /><path
       d="m 30.3,60.5 c 0,0 0,0 0,0 0,0 0,0 0,0 z"
       id="path104"
       inkscape:connector-curvature="0" /><path
       d="m 30.3,60.5 c 0,0 0,0 0,0 l 0,0 z"
       id="path106"
       inkscape:connector-curvature="0" /><path
       d="m 92.9,47.4 c 0.2,0.2 0.4,0.3 0.7,0.3 l -0.7,-0.3 z"
       id="path108"
       inkscape:connector-curvature="0" /><path
       d="m 85.6,21.6 c 0.1,-0.4 0.1,-0.5 0,0 l 0,0 z"
       id="path110"
       inkscape:connector-curvature="0" /><path
       d="m 55.9,52.5 c -0.1,-0.2 -0.1,0.1 0,0 l 0,0 z"
       id="path112"
       inkscape:connector-curvature="0" /><path
       d="m 54.1,58.3 c 0,0 0,0 0,0 -0.1,0.1 -0.1,0 0,0 z"
       id="path114"
       inkscape:connector-curvature="0" /><path
       d="m 54.3,54.8 c 0,0.1 0.1,0 0.2,-0.1 -0.2,0 -0.4,0 -0.2,0.1 z"
       id="path116"
       inkscape:connector-curvature="0" /><path
       d="m 54.4,55.8 c 0,0 0,0 0,0 l 0,0 z"
       id="path118"
       inkscape:connector-curvature="0" /><path
       d="m 54,56 0,0 c 0.2,0.1 0.7,0.1 0.8,0.3 0,0.1 -0.6,0 -0.7,-0.1 -0.1,0.1 0.5,0.2 0.5,0.3 -0.1,0 -0.3,0 -0.4,0.1 0.2,0.1 0.5,0.1 0.7,0.1 0.3,0.2 -0.2,0.1 -0.3,0.2 l -0.2,-0.1 c -0.8,0.3 0.4,0.5 -0.4,0.4 0,0 0.6,0.4 0.2,0.2 0,0.1 -0.5,0.1 -0.1,0.2 -0.1,0.1 -0.1,0 -0.1,0.1 0.3,0.2 0.1,-0.1 0.4,0.1 -0.2,0 -0.1,0.4 -0.1,0.3 0.1,0 -0.1,0.1 -0.3,0.2 0.1,0 0.3,0 0.4,0.1 -0.2,0 -0.3,0 -0.5,0 0.4,0.1 0.6,0.3 0.3,0.4 0,-0.1 0.4,0.2 0.6,0.3 -0.3,0 -0.5,-0.2 -0.5,-0.1 -0.8,-0.2 0.1,0.3 0.1,0.3 -0.3,-0.1 -0.3,0.1 -0.3,0.1 -0.1,0.8 0.5,0.9 0,1.2 -0.1,0.1 0.2,0.3 0,0.4 l 0.1,0 c 0.1,0.1 -0.2,0.4 0.2,0.6 -0.9,0 0,1.2 0,1.2 -0.2,-0.1 -0.3,0.2 -0.3,0.2 0.1,0.2 0.1,0.2 0,0.2 -0.1,0.2 0,0.3 0.2,0.3 l -0.1,0.1 c -0.3,-0.1 0.2,0.1 -0.2,0.1 0.2,0.1 0.2,0.1 0,0.2 0.2,0.1 0.3,0.1 0.3,0.1 0.2,0.1 0.2,0.1 -0.1,0.1 0.1,0 -0.1,0.4 -0.1,0.3 0,0.1 0,0.5 0,0.4 0,0 0,-0.1 0,-0.1 -0.5,0 0.1,1 0.1,0.9 -0.3,0.2 -0.1,0.4 0.1,0.6 -0.6,0.3 -0.2,1.1 -0.2,1.1 -0.3,0 -0.1,0.2 0,0.3 -0.1,-0.1 -0.1,0.5 0,0.5 C 54,68.1 54,68 54,68 c 0,0 -0.1,0 -0.2,0 -0.1,0.3 0.6,1.1 0.3,1.4 0,0 -0.1,0 -0.1,-0.1 0.3,0.5 0.2,0.5 0.4,0.6 0,0.2 -0.3,0.3 -0.2,0.5 0.2,0.1 0.3,0.1 0.5,0.2 -0.1,-0.1 0,0.4 0,0.6 -0.3,-0.2 -0.4,-0.1 -0.4,0.3 0.1,0 0.3,0.1 0.4,0.2 0,-0.1 -0.2,1.3 -0.2,1 0.3,0.3 -0.4,1.5 0,2.4 -0.1,0 -0.2,0 -0.2,0 0,0 0,0.1 0,0.1 -0.1,0.1 -0.1,0.2 0,0.2 0.1,0.1 -0.2,0.2 -0.2,0.2 0.1,0 0.1,0.2 0.1,0.2 -0.1,0.1 0.4,0.5 0.3,0.5 -0.5,0.1 0,1.4 0.2,1.7 -0.2,0.1 -0.2,0.4 -0.1,0.5 -0.2,0.3 -0.7,2.3 -0.1,2.7 0.2,0.2 0.4,0.3 0.7,0.4 -0.4,-1.6 1.1,-3.8 0.5,-5.2 l -0.1,-0.1 c -0.3,-1.6 1.4,-5.8 -0.1,-7.6 -0.3,-0.4 0.5,-3 0.5,-3.8 0,-1.4 0.2,-3.1 0,-3.7 -0.1,-0.6 -0.1,-1.1 0,-1.2 -0.2,-0.3 -0.1,-1 0,-1.2 -0.4,-0.8 -0.3,-1.9 -0.1,-2.3 -0.2,-0.3 -0.6,-0.7 -0.2,-0.6 0.1,-0.3 -0.1,-1.7 -0.1,-1.8 0,-0.3 0,-0.7 0,-0.7 -0.2,-0.3 -0.8,-0.4 0.1,-0.1 0,-0.1 -0.1,-0.4 -0.2,-0.6 0,0.1 -0.1,0 -0.3,-0.1 0.1,0.1 0.2,0.1 0,-0.3 -0.1,0.1 -0.2,0.1 0,0.2 l -0.1,0 c -0.1,0.3 -0.1,0.4 0.2,0.3 0,0.3 -0.1,0.3 -0.4,0.2 0.3,0 0.2,0.2 0.1,0.2 0,0 -0.5,0.5 0,0.9 0,0.1 -0.6,0.1 -0.7,0 0.1,0 0.1,0.1 0,0.1 0.2,0 0.5,0.1 0.4,0.1 0.1,0.4 0,0.5 -0.3,0.4 -0.1,0 0.3,0.3 0.5,0.4 -0.5,0 -0.4,-0.2 -0.9,-0.3 0,0.1 0.4,0.4 0.4,0.4 -0.1,0 -0.2,0 -0.2,0 0,0 0,0.1 0,0.2 -0.4,0 0.1,-0.3 -0.4,-0.1 0.2,0.6 0.5,0.7 0.2,0.7 z"
       id="path120"
       inkscape:connector-curvature="0" /><path
       d="m 55.8,53 c -0.1,0 0,0.1 0,0 0,0.1 0,0.1 0,0 z"
       id="path122"
       inkscape:connector-curvature="0" /><path
       d="m 54.4,75.6 c 0,-0.2 -0.1,0 0,0 l 0,0 z"
       id="path124"
       inkscape:connector-curvature="0" /><path
       d="m 54.2,68.4 c 0.1,0 0,-0.1 0,0 l 0,0 z"
       id="path126"
       inkscape:connector-curvature="0" /><path
       class="st1"
       d="m 55.6,52.7 c 0,0 0.1,0 0.3,0"
       id="path128"
       inkscape:connector-curvature="0"
       style="fill:none;stroke:#000000;stroke-width:0;stroke-linecap:round;stroke-linejoin:round" /><path
       d="m 54.7,54.6 c -0.2,0 -0.1,0 0,0 l 0,0 z"
       id="path130"
       inkscape:connector-curvature="0" /><path
       d="m 54.4,55 c 0,0.1 0.1,0.2 0.2,0.2 L 54.4,55 Z"
       id="path132"
       inkscape:connector-curvature="0" /><path
       class="st1"
       d="m 54.1,55.6 c 0,0 0,0 0.1,0"
       id="path134"
       inkscape:connector-curvature="0"
       style="fill:none;stroke:#000000;stroke-width:0;stroke-linecap:round;stroke-linejoin:round" /><path
       d="m 54.4,55.7 c -0.2,-0.1 0,0.2 0,0 l 0,0 z"
       id="path136"
       inkscape:connector-curvature="0" /><path
       d="m 54.1,56.7 c -0.1,0 0.1,0.3 0,0 l 0,0 z"
       id="path138"
       inkscape:connector-curvature="0" /><path
       d="m 54.2,57.2 c -0.2,0.1 0,0 0,0 l 0,0 z"
       id="path140"
       inkscape:connector-curvature="0" /><path
       d="m 54.2,66 0,0 c 0.1,0 0.1,0 0,0 z"
       id="path142"
       inkscape:connector-curvature="0" /><path
       class="st1"
       d="M 54.1,70 C 54,70 54,70 54,70"
       id="path144"
       inkscape:connector-curvature="0"
       style="fill:none;stroke:#000000;stroke-width:0;stroke-linecap:round;stroke-linejoin:round" /><path
       d="m 54.5,72.1 0,0 c 0.3,0 0.3,0 0,0 z"
       id="path146"
       inkscape:connector-curvature="0" /><path
       class="st1"
       d="m 77.7,58.8 c 0,0 0,0 0,0"
       id="path148"
       inkscape:connector-curvature="0"
       style="fill:none;stroke:#000000;stroke-width:0;stroke-linecap:round;stroke-linejoin:round" /><path
       d="m 77.7,59.4 c 0,0 0.1,0 0,0 0,-0.1 0,-0.1 0,0 z"
       id="path150"
       inkscape:connector-curvature="0" /><path
       d="m 77.1,67.3 c -0.1,0 -0.1,0 0,0 -0.1,0 0,0 0,0 z"
       id="path152"
       inkscape:connector-curvature="0" /><path
       d="m 76.9,68.3 c 0,-0.1 -0.1,-0.1 0,0 l 0,0 z"
       id="path154"
       inkscape:connector-curvature="0" /><path
       class="st1"
       d="m 77.4,58.9 c 0,0 0.1,0 0.3,0"
       id="path156"
       inkscape:connector-curvature="0"
       style="fill:none;stroke:#000000;stroke-width:0;stroke-linecap:round;stroke-linejoin:round" /><path
       class="st1"
       d="m 76,60.1 c 0,0 0,0 0.1,0"
       id="path158"
       inkscape:connector-curvature="0"
       style="fill:none;stroke:#000000;stroke-width:0;stroke-linecap:round;stroke-linejoin:round" /><path
       d="m 76.4,60.1 c -0.3,0 0,0.1 0,0 l 0,0 z"
       id="path160"
       inkscape:connector-curvature="0" /><path
       d="m 76.1,60.5 c -0.2,0 0,0.1 0,0 l 0,0 z"
       id="path162"
       inkscape:connector-curvature="0" /><path
       d="m 76.4,64.3 0,0 c 0.1,0 0.1,0 0,0 z"
       id="path164"
       inkscape:connector-curvature="0" /><path
       class="st1"
       d="m 76.4,66 c -0.1,0 -0.1,0 -0.1,0"
       id="path166"
       inkscape:connector-curvature="0"
       style="fill:none;stroke:#000000;stroke-width:0;stroke-linecap:round;stroke-linejoin:round" /><path
       class="st1"
       d="m 29.7,61 c 0,0 0,0 0,0"
       id="path168"
       inkscape:connector-curvature="0"
       style="fill:none;stroke:#000000;stroke-width:0;stroke-linecap:round;stroke-linejoin:round" /><path
       d="m 28.1,62.3 c 0,0 0.1,0 0,0 0,0 0,0 0,0 z"
       id="path170"
       inkscape:connector-curvature="0" /><path
       d="m 29.2,69.2 c 0,0 -0.1,0 0,0 l 0,0 z"
       id="path172"
       inkscape:connector-curvature="0" /><path
       d="m 28.2,62.4 c 0,-0.1 0,0 0,0 0,0 0,0 0,0 z"
       id="path174"
       inkscape:connector-curvature="0" /><path
       d="m 29.4,68.4 c 0,0 0,0 0,0 0,0 0,0 0,0 z"
       id="path176"
       inkscape:connector-curvature="0" /><path
       d="m 29.1,61.4 c 0,0 -0.1,0 -0.1,0 0,-0.1 0.1,0 0.1,0 z"
       id="path178"
       inkscape:connector-curvature="0" /><path
       d="m 30.5,66.6 c 0,0 -0.2,-0.4 -0.3,-0.5 0.2,0 0.3,-0.5 0.3,-0.6 -0.1,-0.8 -0.1,-1.1 -0.1,-1.3 -0.1,-0.2 -0.3,-0.5 0,-0.4 -0.2,-0.1 -0.2,-0.4 0,-0.4 -0.4,-0.3 0.1,-0.5 -0.5,-0.6 0.1,0.1 0.3,-0.2 0.3,-0.2 -0.2,-0.1 -0.7,-0.3 -0.2,-0.2 0,-0.1 -0.1,-0.6 -0.1,-0.7 0,-0.1 0,-0.2 0,-0.2 -0.1,0 -0.2,-0.1 -0.3,-0.1 0.1,0 0.2,0 0.3,0 0,0 -0.2,-0.2 -0.5,-0.2 0.1,0 0.3,0 -0.1,-0.1 -0.1,0 -0.2,0 0,0.1 l -0.1,0 c 0,0.1 0,0.2 0.2,0.1 0,0.1 -0.1,0.1 -0.2,0.1 0.1,0 0.1,0.1 0,0.1 0,0 1,-0.2 -0.2,0.1 0,0.2 0,0.2 0.3,0.3 0,0.2 -1.3,-0.3 -0.7,0 0.1,0 0,0 0,0.1 0.2,0 0.4,0 0.5,0 0,0.2 -0.1,0.2 -0.3,0.2 0,0 0.2,0.1 0.4,0.1 -0.3,0 -0.5,-0.1 -0.8,-0.1 0,0.1 0.4,0.1 0.4,0.1 -0.2,0 -0.4,-0.1 -0.6,0 0,0 0.4,0.1 0.1,0.1 l 0.1,0 c 0.2,0 0.5,-0.1 0.7,0.1 0,0 -0.4,0 -0.6,0 0.1,0 0.3,0.1 0.4,0.1 -0.1,0 -0.3,0 -0.4,0.1 1.4,0 0.7,0 0.5,0.1 l -0.2,0 c -0.3,0.1 -0.3,0.1 -0.3,0.1 0.4,-0.2 0.3,0 -0.1,0 0,0 0.7,0.1 0.2,0.1 0,0 -0.5,0 -0.1,0.1 -0.2,0.1 -0.1,0 -0.1,0 0.2,0 0.1,0 0.4,0 -0.1,0 -0.1,0.1 -0.1,0.1 -0.2,0 -0.6,0.1 0.2,0.1 -0.4,0.2 -0.4,0.2 -0.2,0.2 0,0 0,0 0.1,0 -0.8,-0.1 0.1,0.1 0.1,0.1 -0.3,-0.1 -0.3,0 -0.3,0 0,0.2 0.1,0.3 0.4,0.3 -0.9,0.1 0.3,0.2 -0.3,0.1 0,0 0.2,0.1 0.1,0.2 l 0.1,0 c -0.2,-0.1 0,0.2 0.3,0.2 -0.2,0 -0.3,0 -0.4,0.1 0,0.1 0.4,0.4 0.4,0.3 -0.3,0 -0.3,0.1 -0.3,0.1 C 29,65 29,65 29,65 c -0.4,0 -0.2,0 -0.1,0 l -0.1,0 c -0.3,0 0.3,0 -0.2,0 -0.1,0.1 0.3,0.1 0.3,0.1 0.2,0 0.2,0 -0.1,0.1 0.1,0 -0.1,-0.1 -0.1,-0.1 0,0 0.2,-0.1 -0.1,-0.1 0.1,0 0.1,0 0.2,0 0,1 -0.2,0.5 -0.3,0.5 0.1,0 0.2,0.2 0.3,0.2 -0.1,0 -0.3,0.1 0.1,0.3 -0.6,0.1 0,0.2 -0.4,0.3 0.2,0 0.3,0.3 0.2,0.1 -0.3,0 -0.1,0.1 0,0.1 0.1,0 0,0.2 -0.3,0.1 0,0 0.5,0.4 0.3,0.5 0,0 -0.1,0 -0.1,0 0.4,0.2 0.1,0.2 0.5,0.2 0,0.1 -0.5,0.2 0.3,0.2 0,0 -0.1,0.1 -0.2,0.2 0,0 -0.2,0.2 -0.2,0.3 0,0 0,0 0,0 0,0 0.1,0 0,0 l 0.1,0 c 0.1,0 0.2,0 0.2,0 0,0.1 0.1,0.4 0.1,0.4 0,0.1 0.1,0.1 0,0.1 0.1,0.1 -0.2,0.5 0.1,0.7 -0.1,0 -0.2,0 -0.2,0 0,0 0,0 0,0 0,0 0,0.1 0,0.1 0,0 0.2,0.1 -0.1,0.1 0,0 0.2,0.1 0.1,0.1 0.1,0 0.3,0.5 0.6,0.8 -0.3,0.1 -0.1,0.2 -0.1,0.2 -0.2,0.1 -0.5,0.8 0,1 1,0.8 1.1,-1.6 1,-1.7 l 0,0 c 0.1,-0.1 0.1,-0.4 -0.2,-0.4 0.8,-0.1 0,-2.2 -0.3,-2.3 -0.3,-0.2 0,-0.3 0.2,-0.5 z m -1.7,-1.1 c 0,0 0,0 0,0 0,0 -0.1,0 0,0 z m 0.3,-2.1 c -0.4,0 -0.6,-0.1 -0.7,-0.1 0.1,0 0.1,0 0.1,0 0.4,0 1.4,0.2 0.6,0.1 z m 0.4,4.2 c -0.2,0 -0.1,0 0,0 l 0,0 z"
       id="path180"
       inkscape:connector-curvature="0" /><path
       d="m 28.3,61.8 c -0.1,0.1 0.1,0.1 0.2,0 -0.2,0 -0.2,0 -0.2,0 z"
       id="path182"
       inkscape:connector-curvature="0" /><path
       d="m 29.3,68.5 c 0,0 0,0 0,0 0.1,0 0,0 0,0 z"
       id="path184"
       inkscape:connector-curvature="0" /><path
       d="m 29.8,61.5 c 0,0 0,0 0,0 0,-0.1 0,-0.1 0,0 z"
       id="path186"
       inkscape:connector-curvature="0" /><path
       class="st1"
       d="m 29.5,61.1 c 0,0 0.1,0 0.3,0"
       id="path188"
       inkscape:connector-curvature="0"
       style="fill:none;stroke:#000000;stroke-width:0;stroke-linecap:round;stroke-linejoin:round" /><path
       d="m 28.6,62 -0.2,-0.1 c 0.1,0 0.1,0 0.2,0.1 z"
       id="path190"
       inkscape:connector-curvature="0" /><path
       class="st1"
       d="m 28.1,62.1 c 0,0 0,0 0.1,0"
       id="path192"
       inkscape:connector-curvature="0"
       style="fill:none;stroke:#000000;stroke-width:0;stroke-linecap:round;stroke-linejoin:round" /><path
       d="m 28.5,62.1 c -0.3,0 0,0.1 0,0 l 0,0 z"
       id="path194"
       inkscape:connector-curvature="0" /><path
       d="m 28.2,62.5 c -0.2,0 0,0.1 0,0 l 0,0 z"
       id="path196"
       inkscape:connector-curvature="0" /><path
       d="m 28.7,65.8 0,0 c 0.1,0 0.1,0 0,0 z"
       id="path198"
       inkscape:connector-curvature="0" /><path
       class="st1"
       d="m 28.7,67.2 c -0.1,0 -0.1,0 -0.1,0"
       id="path200"
       inkscape:connector-curvature="0"
       style="fill:none;stroke:#000000;stroke-width:0;stroke-linecap:round;stroke-linejoin:round" /><path
       d="m 30.8,71.6 c -0.3,0 0,0.2 0,0 l 0,0 z"
       id="path202"
       inkscape:connector-curvature="0" /><path
       d="m 33.8,74.9 c 0,0 0,0 0,0 0,0 0,0 0,0 z"
       id="path204"
       inkscape:connector-curvature="0" /><path
       d="m 35,75.3 c -0.2,-0.1 -0.3,-0.2 -0.4,-0.2 0.1,0.4 0.3,0.3 0.4,0.2 z"
       id="path206"
       inkscape:connector-curvature="0" /><path
       d="m 35.4,76 c 0,0 0,0 0,0 -0.1,0 -0.1,0 0,0 z"
       id="path208"
       inkscape:connector-curvature="0" /><path
       d="m 31.4,72.1 c 0,0 0,0 0,0 0,-0.1 0,0 0,0 z"
       id="path210"
       inkscape:connector-curvature="0" /><path
       d="m 33.6,74.6 c 0.1,0 0.1,0 0.1,0 0,0 0,0 -0.1,0 z"
       id="path212"
       inkscape:connector-curvature="0" /><path
       d="m 67.6,74.5 0,0.2 C 64.8,77 58.7,78.7 56.5,82.3 56.2,82.8 55.2,83 54.8,83 54.1,83.6 52.4,82.1 51.5,81.5 50,80.8 46.1,79.2 45.6,78.5 44.8,78.2 43.9,77.7 43.8,77.6 43.3,77.5 42.2,76.9 41.9,76.7 40.5,76.4 39,75.7 38.2,75 37.5,75 36.9,74.9 37.1,74.6 36.3,74.1 34.8,73.5 34.2,73.2 34,73 33.1,72.6 33,72.6 c -0.4,0 -1,0.5 -0.2,-0.2 -0.2,-0.2 -1.2,-0.4 -1.2,-0.4 0,0.1 -0.1,0.2 0,0.3 -0.3,0.4 -0.2,-0.2 -0.1,-0.3 -0.2,0 -0.3,0.1 -0.5,0.1 0,0.2 0.1,0.2 0.3,0.2 l -0.1,0.1 c 0.5,0.4 0.6,0.5 0.6,0.1 0.4,0.2 0.5,0.3 0.2,0.5 0.2,-0.2 0.4,0 0.4,0.1 -0.1,-0.2 1.9,1.3 1.4,1.4 0.1,0.1 0.1,0.2 0.1,0.3 0.3,-0.2 1.4,-0.4 1.7,-0.2 0,0 -0.3,0.4 -0.5,0.6 0.3,0.1 0.6,0.3 0.7,0.4 -0.1,0 -0.3,0.3 -0.3,0.3 0.1,0.1 0.4,-0.2 0.3,0.1 l 0.2,0 c 0.1,-0.2 0.3,-0.6 0.6,-0.5 0.2,0.1 -0.3,0.6 -0.4,0.6 0.2,0.3 0.6,-0.4 0.6,-0.3 -0.1,0.2 0,0.3 0.1,0.5 0.2,-0.1 0.4,-0.3 0.5,-0.6 0.5,-0.1 0,0.2 0.2,0.4 l -0.2,0.1 c 0,0.2 0.1,0.3 0.1,0.5 0,0 0.1,0 0.1,0 0,0 0.1,0 0.1,0.1 0,-0.2 0.1,-0.2 0.2,-0.3 0.1,0.2 0.2,0.3 0.1,0.3 0.2,-0.1 0.6,-0.2 0.2,0 0.2,0 -0.1,0.5 0.2,0.2 0,0.1 0.1,0.2 0.1,0.2 0.3,-0.1 0.2,-0.3 0.2,-0.3 0.1,0 0.7,0.4 0.6,0.3 0,-0.1 0.2,0.2 0.2,0.4 0.1,-0.1 0.2,-0.2 0.3,-0.3 0,0.2 -0.1,0.3 -0.2,0.4 0.3,-0.2 0.4,-0.1 0.5,0 0.1,0 0.4,-0.4 0.5,-0.2 0.4,-0.1 1.1,-0.3 0.6,-0.2 0,0.3 -0.7,0.4 -0.3,0.5 -0.4,0.4 0.1,0.3 0.1,0.3 0,0 0.2,-0.4 0.4,-0.1 -0.4,0.1 0,0.4 0,0.3 0.9,0.5 1.6,0.4 2,0.9 0.1,0.2 0.6,0.2 0.7,0.3 l 0.1,-0.1 c 0.1,0.1 0.6,0.3 0.8,0.4 -0.4,0.2 0,0.3 0,0.3 -0.2,0.5 2.1,1.3 2.2,1.4 0.3,0 0.4,0.1 0.3,0.1 0.3,0.2 0.5,0.3 0.6,0.1 l 0.1,0.2 c -0.5,0.3 0.2,-0.1 0.2,0 0,0.1 0,0.1 -0.1,0.2 0,0 0.6,0.2 0.6,0.1 -0.4,-0.5 0.2,-0.1 0,-0.1 0.2,0 0.3,-0.1 0.2,0.2 0.1,-0.1 0.4,0.3 0.5,0.3 0.2,0.1 0.7,0.3 0.7,0.3 -0.1,0 -0.1,0 -0.1,-0.1 -0.1,0.5 1.5,0.7 1.5,0.7 0.2,0.3 2.9,1.9 3,1.4 0,0.3 0.5,-0.3 0.6,-0.4 0,0 0.8,-0.5 0.8,-0.5 0,0.1 -0.1,0.1 -0.1,0.2 0,0 0.1,0.1 0.1,0.2 0.7,-0.4 1,-1.5 1.9,-1.6 0,0.1 0,0.1 0,0.2 0,0 0.7,-0.8 0.7,-0.8 -0.1,0 -0.1,0.1 0,-0.2 0.5,-0.3 0.8,0 0.9,-0.9 0,0 0.6,-0.5 0.8,-0.5 0.1,-0.1 2.1,-1.2 2.3,-1.4 0.3,-0.7 2.6,-1.3 3.6,-2.4 0.1,0.1 0.1,0.1 0.1,0.2 0,0 0.1,-0.1 0.2,-0.1 0.2,0 0.3,-0.1 0.2,-0.2 0,-0.1 0.4,-0.1 0.4,-0.1 0,-0.1 0.2,-0.2 0.2,-0.2 0.7,-0.1 2.4,-1.9 2.9,-2.6 0.3,0 0.7,-0.2 0.9,-0.4 0.9,-0.2 3.7,-1.6 4.1,-2.6 0.2,-0.3 0.3,-0.6 0.2,-0.9 -1.9,1.7 -6.4,2.4 -7.9,4.6 z"
       id="path214"
       inkscape:connector-curvature="0" /><path
       d="m 37.8,77 c -0.1,0 -0.1,0 -0.2,0.1 0.1,0 0.1,-0.1 0.2,-0.1 z"
       id="path216"
       inkscape:connector-curvature="0" /><path
       d="m 40.2,78 c 0.1,0 0.2,-0.1 0.2,-0.1 0,0 0,0 0,-0.1 -0.1,0.1 -0.2,0.2 -0.2,0.2 z"
       id="path218"
       inkscape:connector-curvature="0" /><path
       d="m 56.1,84.2 c -0.1,-0.1 -0.2,0.3 0,0 l 0,0 z"
       id="path220"
       inkscape:connector-curvature="0" /><path
       d="m 44.8,80.3 c 0,0 0,0 0,0 0.1,0.1 0.1,0 0,0 z"
       id="path222"
       inkscape:connector-curvature="0" /><path
       d="m 39.4,77.9 c -0.1,0 -0.1,0 0,0 0,0.1 0,0 0,0 z"
       id="path224"
       inkscape:connector-curvature="0" /><path
       d="m 66.6,76.9 c -0.2,0.1 0,0.1 0,0 l 0,0 z"
       id="path226"
       inkscape:connector-curvature="0" /><path
       class="st1"
       d="M 31,71.7 C 31,71.9 30.9,72 30.9,72"
       id="path228"
       inkscape:connector-curvature="0"
       style="fill:none;stroke:#000000;stroke-width:0;stroke-linecap:round;stroke-linejoin:round" /><path
       d="m 33.7,74.4 c -0.2,0.1 0,0 0,0 l 0,0 z"
       id="path230"
       inkscape:connector-curvature="0" /><path
       d="m 34.5,74.9 -0.4,0 c 0.1,0 0.3,0 0.4,0 z"
       id="path232"
       inkscape:connector-curvature="0" /><path
       class="st1"
       d="m 35.1,75.6 c -0.1,0.1 -0.1,0.1 0,0"
       id="path234"
       inkscape:connector-curvature="0"
       style="fill:none;stroke:#000000;stroke-width:0;stroke-linecap:round;stroke-linejoin:round" /><path
       d="m 35.2,75.4 c -0.1,0.2 0.4,0.2 0,0 l 0,0 z"
       id="path236"
       inkscape:connector-curvature="0" /><path
       d="m 36.8,76.6 c -0.1,0.1 0.5,0.1 0,0 l 0,0 z"
       id="path238"
       inkscape:connector-curvature="0" /><path
       class="st1"
       d="m 37.6,76.8 c 0,0 0,0 0,0"
       id="path240"
       inkscape:connector-curvature="0"
       style="fill:none;stroke:#000000;stroke-width:0;stroke-linecap:round;stroke-linejoin:round" /><path
       d="m 37.6,76.8 c 0,0.3 0,0.1 0,0 l 0,0 z"
       id="path242"
       inkscape:connector-curvature="0" /><path
       d="m 51.7,83.8 0.1,0 c 0,-0.1 0,-0.1 -0.1,0 z"
       id="path244"
       inkscape:connector-curvature="0" /><path
       class="st1"
       d="m 58.6,82.7 c 0,0 0,0 -0.1,0"
       id="path246"
       inkscape:connector-curvature="0"
       style="fill:none;stroke:#000000;stroke-width:0;stroke-linecap:round;stroke-linejoin:round" /><path
       d="m 61.4,80.3 0,0 c -0.1,-0.2 -0.2,-0.2 0,0 z"
       id="path248"
       inkscape:connector-curvature="0" /><path
       class="st1"
       d="m 55.7,36.8 c 0,0 0,0 0,0"
       id="path250"
       inkscape:connector-curvature="0"
       style="fill:none;stroke:#000000;stroke-width:0;stroke-linecap:round;stroke-linejoin:round" /><path
       d="m 54.2,37.8 c -0.1,0.1 0.1,0.1 0.2,0 -0.1,0 -0.2,0 -0.2,0 z"
       id="path252"
       inkscape:connector-curvature="0" /><path
       d="m 55.1,46.4 c 0,0 -0.1,0 0,0 l 0,0 z"
       id="path254"
       inkscape:connector-curvature="0" /><path
       d="m 55.2,45.4 c 0,0 0,0 0,0 0,0.1 0,0.1 0,0 z"
       id="path256"
       inkscape:connector-curvature="0" /><path
       class="st1"
       d="m 55.7,36.9 c -0.2,0 -0.3,0 -0.3,0"
       id="path258"
       inkscape:connector-curvature="0"
       style="fill:none;stroke:#000000;stroke-width:0;stroke-linecap:round;stroke-linejoin:round" /><path
       d="m 54.4,37.8 c 0,0 0.1,0.1 0.2,0.1 l -0.2,-0.1 z"
       id="path260"
       inkscape:connector-curvature="0" /><path
       class="st1"
       d="m 54.2,38.1 c -0.1,0 -0.1,0 -0.1,0"
       id="path262"
       inkscape:connector-curvature="0"
       style="fill:none;stroke:#000000;stroke-width:0;stroke-linecap:round;stroke-linejoin:round" /><path
       d="m 54.4,38.1 c -0.3,0 0,0.1 0,0 l 0,0 z"
       id="path264"
       inkscape:connector-curvature="0" /><path
       d="m 54.1,38.6 c -0.1,0 0.1,0 0,0 l 0,0 z"
       id="path266"
       inkscape:connector-curvature="0" /><path
       d="m 54.5,42.5 0,0 c 0.2,0 0.1,0 0,0 z"
       id="path268"
       inkscape:connector-curvature="0" /><path
       class="st1"
       d="m 54.5,44.1 c 0,0 0,0 0.1,0"
       id="path270"
       inkscape:connector-curvature="0"
       style="fill:none;stroke:#000000;stroke-width:0;stroke-linecap:round;stroke-linejoin:round" /></g></svg>