<?xml version="1.0" encoding="UTF-8" standalone="no"?>
<svg
   xmlns:dc="http://purl.org/dc/elements/1.1/"
   xmlns:cc="http://creativecommons.org/ns#"
   xmlns:rdf="http://www.w3.org/1999/02/22-rdf-syntax-ns#"
   xmlns:svg="http://www.w3.org/2000/svg"
   xmlns="http://www.w3.org/2000/svg"
   xmlns:sodipodi="http://sodipodi.sourceforge.net/DTD/sodipodi-0.dtd"
   xmlns:inkscape="http://www.inkscape.org/namespaces/inkscape"
   version="1.1"
   x="0px"
   y="0px"
   viewBox="0 0 89.447266 71.109001"
   enable-background="new 0 0 100 100"
   xml:space="preserve"
   id="svg12"
   sodipodi:docname="58.svg"
   width="89.447266"
   height="71.109001"
   inkscape:version="0.92.2 (5c3e80d, 2017-08-06)"><metadata
     id="metadata18"><rdf:RDF><cc:Work
         rdf:about=""><dc:format>image/svg+xml</dc:format><dc:type
           rdf:resource="http://purl.org/dc/dcmitype/StillImage" /><dc:title></dc:title></cc:Work></rdf:RDF></metadata><defs
     id="defs16" /><sodipodi:namedview
     pagecolor="#ffffff"
     bordercolor="#666666"
     borderopacity="1"
     objecttolerance="10"
     gridtolerance="10"
     guidetolerance="10"
     inkscape:pageopacity="0"
     inkscape:pageshadow="2"
     inkscape:window-width="1134"
     inkscape:window-height="480"
     id="namedview14"
     showgrid="false"
     fit-margin-top="0"
     fit-margin-left="0"
     fit-margin-right="0"
     fit-margin-bottom="0"
     inkscape:zoom="1.888"
     inkscape:cx="44.628943"
     inkscape:cy="23.533"
     inkscape:window-x="0"
     inkscape:window-y="27"
     inkscape:window-maximized="0"
     inkscape:current-layer="svg12" /><path
     d="m 57.138943,37.01 c 3.333,-4.458 4.756,-0.621 4.756,-0.623 -2.054,3.067 -4.756,0.623 -4.756,0.623 z m 3.898,-1.293 c 0,0 -0.684,-0.846 -1.812,-0.186 -0.676,0.393 0.021,0.443 0.021,0.443 0,0 0.562,-0.424 0.99,-0.312 0.429,0.108 0.492,0.291 0.662,0.392 0.304,0.183 0.23,-0.279 0.139,-0.337 z"
     id="path2"
     inkscape:connector-curvature="0"
     style="fill:#000000" /><path
     d="m 27.397943,36.387 c 0,0.002 1.422,-3.835 4.756,0.623 -10e-4,0 -2.704,2.444 -4.756,-0.623 z m 0.996,-0.332 c 0.168,-0.101 0.233,-0.283 0.661,-0.392 0.427,-0.113 0.99,0.312 0.99,0.312 0,0 0.698,-0.053 0.023,-0.443 -1.131,-0.66 -1.814,0.186 -1.814,0.186 -0.091,0.057 -0.164,0.519 0.14,0.337 z"
     id="path4"
     inkscape:connector-curvature="0"
     style="fill:#000000" /><path
     d="m 55.554943,0 c 8.896,0.197 16.301,4.022 16.301,4.022 28.470997,-3.36 13.825,21.979 13.825,21.979 0.229,2.22 0.423,4.529 0.423,6.715 0,9.81 -9.24,17.235 -17.395,23.787 -2.262,1.818 -4.398,3.535 -6.297,5.255 l -1.883,1.713 c -7.104,6.472 -8.383,7.638 -15.462,7.638 0,0 0,0 -0.002,0 l -0.327,-0.002 -0.355,0.002 c -7.081,0 -8.36,-1.166 -15.468,-7.642 l -1.879,-1.707 c -1.897,-1.721 -4.036,-3.438 -6.297,-5.256 -8.155,-6.552 -17.3949999,-13.978 -17.3949999,-23.787 0,-2.304 0.162,-4.377 0.422,-6.715 0,0 -14.6450001,-25.339 13.8249999,-21.979 0,0 7.406,-3.825 16.301,-4.022 h 10.789 z m -24.721,63.178 c -1.087,-1.523 -2.047,-3.707 -2.49,-6.748 -1.736,-11.912 -9.708,-18.134 -23.3489999,-29.412 -0.17,1.807 -0.144,3.692 -0.144,5.699 0,9.085 8.9409999,16.272 16.8299999,22.613 2.281,1.833 4.435,3.562 6.366,5.312 l 1.881,1.711 c 0.314,0.285 0.616,0.56 0.906,0.825 z m 27.682,0.086 c 0.318,-0.289 0.651,-0.594 1,-0.907 l 1.885,-1.714 c 1.932,-1.75 4.084,-3.479 6.365,-5.312 7.889,-6.341 16.831,-13.527 16.831,-22.613 0,-1.912 -0.13,-3.856 -0.284,-5.584 -13.555,11.204 -21.48,17.424 -23.209,29.296 -0.461,3.166 -1.582,5.412 -2.716,6.941 m -3.044,-61.869 c -2.104,-0.174 -4.23,-0.258 -6.584,-0.258 -1.292,0 -2.625,0.027 -4.006,0.082 -1.437,-0.055 -2.775,-0.082 -4.065,-0.082 -2.371,0 -4.462,0.086 -6.58,0.262 v 0.002 c -0.103,2.647 -0.714,8.489 0.558,15.23 2.075,10.998 3.971,25.744 -0.02,30.186 -6.06,6.739 -3.969,15.029 -0.441,19.234 3.564,2.975 5.286,3.441 10.177,3.441 l 0.322,-0.002 0.005,0.104 -0.002,-0.104 0.358,0.002 c 4.874,0 6.599,-0.465 10.131,-3.403 3.594,-4.17 4.949,-12.574 -1.904,-19.272 -3.838,-3.755 0.059,-22.615 1.494,-30.215 1.267,-6.711 0.662,-12.528 0.558,-15.179 m 31.032,10.947 c 0.402,-0.109 0.639,-0.524 0.529,-0.924 -1.314,-4.813 -4.127,-6.281 -11.143,-5.832 -0.416,0.028 -0.73,0.386 -0.703,0.801 0.025,0.415 0.377,0.712 0.801,0.704 6.977,-0.446 8.6,1.093 9.59,4.722 0.091,0.336 0.396,0.557 0.727,0.557 0.064,-0.001 0.133,-0.011 0.199,-0.028 z m -23.643,23.548 c 0,0 -2.817,-3.798 -6.297,0.822 10e-4,0 3.579,3.236 6.297,-0.822 z m -29.88,0.822 c -3.479,-4.621 -6.297,-0.822 -6.297,-0.822 2.719,4.058 6.297,0.822 6.297,0.822 z M 3.2689431,12.504 c 0.331,0 0.636,-0.221 0.728,-0.557 0.991,-3.629 2.613,-5.168 9.5889999,-4.722 0.424,0.009 0.775,-0.289 0.801,-0.704 0.026,-0.415 -0.289,-0.773 -0.704,-0.801 -7.0139999,-0.449 -9.8279999,1.019 -11.1409999,5.832 -0.109,0.4 0.126,0.815 0.528,0.924 0.066,0.018 0.134,0.028 0.199,0.028 z m 30.4639999,46.17 c 1.077,6.407 4.797,9.489 10.991,9.489 6.194,0 10.184,-1.743 11.932,-8.667 1.519,-6.006 -5.368,-9.777 -11.562,-9.777 -6.194,0 -12.389,2.846 -11.361,8.955 z m 12.292,1.247 c 0,0 -0.371,-9.385 7.187,-3.999 -10e-4,0 1.385,5.916 -7.187,3.999 z m -9.912,-3.999 c 7.556,-5.386 7.187,3.999 7.187,3.999 -8.573,1.917 -7.187,-3.999 -7.187,-3.999 z"
     id="path6"
     inkscape:connector-curvature="0"
     style="fill:#000000" /></svg>