<?xml version="1.0" encoding="UTF-8" standalone="no"?>
<svg
   xmlns:dc="http://purl.org/dc/elements/1.1/"
   xmlns:cc="http://creativecommons.org/ns#"
   xmlns:rdf="http://www.w3.org/1999/02/22-rdf-syntax-ns#"
   xmlns:svg="http://www.w3.org/2000/svg"
   xmlns="http://www.w3.org/2000/svg"
   xmlns:sodipodi="http://sodipodi.sourceforge.net/DTD/sodipodi-0.dtd"
   xmlns:inkscape="http://www.inkscape.org/namespaces/inkscape"
   version="1.1"
   x="0px"
   y="0px"
   viewBox="0 0 500 500.51474"
   enable-background="new 0 0 100 100"
   xml:space="preserve"
   id="svg2"
   inkscape:version="0.91 r13725"
   sodipodi:docname="boy.svg"
   width="500"
   height="500.51474"><metadata
     id="metadata14"><rdf:RDF><cc:Work
         rdf:about=""><dc:format>image/svg+xml</dc:format><dc:type
           rdf:resource="http://purl.org/dc/dcmitype/StillImage" /><dc:title></dc:title></cc:Work></rdf:RDF></metadata><defs
     id="defs12" /><sodipodi:namedview
     pagecolor="#ffffff"
     bordercolor="#666666"
     borderopacity="1"
     objecttolerance="10"
     gridtolerance="10"
     guidetolerance="10"
     inkscape:pageopacity="0"
     inkscape:pageshadow="2"
     inkscape:window-width="1680"
     inkscape:window-height="988"
     id="namedview10"
     showgrid="false"
     fit-margin-top="0"
     fit-margin-left="0"
     fit-margin-right="0"
     fit-margin-bottom="0"
     inkscape:zoom="1.888"
     inkscape:cx="37.442026"
     inkscape:cy="24.843188"
     inkscape:window-x="-8"
     inkscape:window-y="-8"
     inkscape:window-maximized="1"
     inkscape:current-layer="svg2" /><path
     d="m 124.86957,29.921301 c 3.94491,-2.3392 9.25766,-4.36782 15.26423,-7.10349 3.0132,-1.32158 6.25768,-2.74888 9.71361,-4.2687 3.56826,-1.21585 7.36119,-2.50439 11.37219,-3.87223 3.99777,-1.36783 8.207,-2.81496 12.62768,-4.32156 4.53963,-1.1101202 9.27749,-2.2797202 14.2268,-3.4955702 9.77969,-2.87444 20.82148,-3.77972 32.39851,-5.67619 23.43159,-2.0947 50.20018,-1.79074 78.71985,4.05064 28.42056,5.7356602 58.53273,17.0351602 86.68237,35.4645702 28.14302,18.25101 54.21777,43.57246 74.23969,74.741899 20.06157,31.1298 33.9778,68.13401 38.50421,107.47081 4.04403,39.29715 -0.68722,80.67578 -15.57481,118.9421 -15.25102,38.10112 -39.7531,73.20226 -71.62297,99.91798 -31.69147,26.88752 -70.34765,45.56144 -110.66242,53.6495 -40.30155,8.39203 -82.08988,6.20481 -120.14474,-5.01539 C 142.50604,479.37709 108.03265,459.42786 80.887415,433.9346 53.319278,408.81799 33.112335,378.21683 19.837074,347.15311 13.334906,331.51884 8.4913191,315.74579 5.1741561,300.20402 2.2204271,284.60939 0.31735315,269.34515 0.08607715,254.63598 -0.70026285,225.21763 3.9847351,198.37636 10.711572,175.43375 17.484664,152.43828 26.62999,133.44058 35.398667,118.38779 44.021969,103.2425 51.885364,92.445201 58.394141,84.416611 c 7.295116,-8.25987 14.907411,-13.31491 21.75319,-14.97349 6.740052,-1.81717 12.178345,-0.87224 15.455865,2.05505 3.27752,2.9273 4.453724,7.79732 2.7621,13.77086 -0.81277,3.02641 -2.49778,6.17838 -4.77751,9.81272 -2.18721,3.72024 -5.359,7.559429 -9.277482,11.874389 -5.471337,6.37001 -14.121071,14.95366 -22.440411,27.7928 -8.517576,12.67394 -17.391979,29.02848 -24.211326,49.19578 -6.746661,20.12765 -11.695974,43.98215 -11.682758,70.3873 -0.151982,13.21578 1.2555,26.96021 3.594694,41.08128 2.702629,14.05499 6.786308,28.35447 12.396411,42.6011 11.497737,28.24214 29.431564,56.3323 54.257422,79.53262 24.396354,23.53732 55.651694,42.02621 90.415834,52.394 34.71127,10.51976 73.05028,12.77966 110.00162,5.18719 36.98439,-7.31494 72.41592,-24.34348 101.53692,-49.0504 29.31262,-24.56815 51.63409,-56.78164 65.55692,-91.7308 13.53297,-35.11435 17.61004,-73.08992 13.67834,-109.00383 -4.44711,-35.93373 -17.48449,-69.53488 -36.09893,-97.63165 -18.60783,-28.136409 -42.64735,-50.801489 -68.35206,-66.825639 -25.73775,-16.16952 -53.08122,-25.77079 -78.71985,-30.2179 -25.73115,-4.55945 -49.65172,-4.05725 -70.36087,-1.4273 -10.22241,2.17399 -19.93602,3.29073 -28.44698,6.32375 -4.28853,1.28854 -8.41185,2.53082 -12.35016,3.71364 -3.82597,1.49338 -7.41406,3.07928 -10.83695,4.49997 -3.40967,1.44713 -6.62111,2.81497 -9.64752,4.09029 -2.86122,1.62554 -5.54403,3.15197 -8.04842,4.56606 -4.9361,2.92069 -9.31052,5.08808 -12.66733,7.30833 -6.00658,4.04403 -11.53739,7.05062 -16.61225,9.23123 -4.90306,2.42509 -9.10568,4.36782 -12.99773,5.31935 -7.68498,2.00219 -13.480114,1.0044 -16.295074,-2.35902 -2.81496,-3.36341 -2.60351,-9.17836 1.73788,-16.80387 2.21364,-3.74007 5.253274,-8.20701 9.759864,-12.47571 4.65196,-4.08368 10.44047,-8.39863 17.39198,-12.73341 z M 337.9147,278.53013 c -6.69379,0 -12.11227,10.86998 -12.11227,24.2774 0,13.43385 5.41848,24.31706 12.11227,24.31706 6.68719,0 12.10567,-10.8766 12.10567,-24.31706 0,-13.40742 -5.41848,-24.2774 -12.10567,-24.2774 z m -162.6269,0 c -6.68719,0 -12.10566,10.86998 -12.10566,24.2774 0,13.43385 5.41847,24.31706 12.10566,24.31706 6.6938,0 12.11228,-10.8766 12.11228,-24.31706 0,-13.40742 -5.41848,-24.2774 -12.11228,-24.2774 z M 45.383196,208.16926 c -2.715845,8.22022 -0.839203,18.0792 9.105679,19.3347 2.722453,0.337 6.693797,0.13877 11.722405,0.13877 2.497785,0.0727 5.286316,-0.0132 8.325948,-0.18502 3.019808,-0.0529 6.290716,-0.32379 9.786292,-0.77973 6.977936,-0.74009 14.821506,-2.38545 23.02852,-5.11452 8.23343,-2.69602 16.66511,-6.89203 24.87211,-12.15852 8.17397,-5.31936 16.0704,-11.83474 23.39195,-19.26862 l 2.35241,-2.54404 0.94493,-1.0837 1.81717,-2.29294 0.46916,-0.5881 c 0.18502,0.0463 0.40308,0.21806 0.60132,0.32379 l 1.24229,0.73347 c 0.87224,0.51542 1.67179,1.04405 2.49778,1.43392 9.76647,5.59688 20.47126,9.56823 31.3016,13.07702 10.89642,3.44271 22.14966,5.62332 33.38308,7.38763 11.25986,1.65858 22.53292,2.46474 33.65401,2.96033 11.10787,0.35022 22.06376,0.33701 32.71569,-0.033 10.65853,-0.46916 20.89416,-1.02422 30.96459,-1.90968 10.22902,-0.95153 19.82369,-2.47135 28.9558,-4.2687 9.11889,-1.87003 17.69594,-4.11672 25.59238,-6.7004 7.87,-2.61012 15.05278,-5.56385 21.35671,-8.82815 6.35019,-3.11232 11.69598,-6.70701 16.19595,-9.7929 4.33478,-3.33038 8.22022,-5.84799 10.30171,-8.35238 3.07267,-3.23126 2.9339,-7.34137 1.22246,-10.5462 -1.73788,-3.27091 -5.20702,-5.9471 -9.09907,-7.98894 -3.89205,-2.02863 -8.16736,-3.47576 -11.59686,-4.1828 -3.44271,-0.67401 -5.88102,-0.5881 -7.12992,1.0044 -0.97136,1.5925 -2.10791,3.99117 -4.31495,6.75987 -2.41849,2.61012 -5.54402,5.75548 -9.98453,8.77529 -4.32156,3.0991 -9.80612,6.11891 -16.20256,8.94709 -6.41626,2.80175 -13.75763,5.34579 -21.82587,7.57265 -8.06824,2.13435 -16.92943,3.99777 -26.05493,5.29292 -9.30392,1.2555 -19.3347,2.15417 -29.43818,2.90087 -10.14972,0.60792 -20.53733,0.8392 -31.01085,0.64096 -10.44047,-0.35682 -20.98006,-1.05065 -31.32803,-2.57708 -10.30831,-1.62554 -20.53072,-3.66738 -30.15182,-6.83917 -9.54841,-3.22465 -18.83911,-6.89203 -26.93378,-11.86117 -3.81275,-2.20043 -7.35459,-4.69161 -10.87659,-7.0308 l -5.29954,-3.56166 c -0.87224,-0.52202 -1.78413,-1.32818 -2.61672,-1.62554 l -2.08149,2.33259 c -2.79514,3.0991 -5.57045,6.17177 -8.31273,9.21801 l -4.22905,4.4339 -2.73567,2.74228 c -6.58146,6.04622 -13.37438,11.0484 -20.11443,14.83472 -6.78631,3.71364 -13.41403,6.40966 -19.71796,7.7841 -6.297334,1.40748 -12.118884,1.98898 -17.292866,1.76431 -2.577079,-0.033 -4.982353,-0.21806 -7.209214,-0.61454 -2.213644,-0.26431 -4.23566,-0.60792 -6.059439,-1.12995 -3.634342,-0.82598 -6.350187,-2.27972 -8.279692,-2.86782 -6.852387,-1.38766 -13.136495,5.88102 -15.905203,14.33252 z M 183.78556,407.50302 c 42.16497,17.88757 89.79468,21.83909 133.55216,7.38762 11.82152,-3.90526 -7.80392,-18.38316 -16.63868,-15.46908 -36.21126,11.96029 -76.02383,8.99335 -110.93995,-5.82155 -13.90961,-5.90746 -19.90958,7.98233 -5.97353,13.90301 l 0,0 z"
     id="path4"
     inkscape:connector-curvature="0"
     style="fill:#000000" /></svg>